
DisplayName "Pocket Castle 1F (North)"



EVENT   1
 PAGE   1
  0()



EVENT   2
 PAGE   1
  0()



EVENT   3
 PAGE   1
  0()



EVENT   4
 PAGE   1
  0()



EVENT   5
 PAGE   1
  0()



EVENT   6
 PAGE   1
  0()



EVENT   7
 PAGE   1
  0()



EVENT   8
 PAGE   1
  0()



EVENT   9
 PAGE   1
  0()



EVENT   10
 PAGE   1
  0()



EVENT   11
 PAGE   1
  0()



EVENT   12
 PAGE   1
  0()



EVENT   13
 PAGE   1
  0()



EVENT   14
 PAGE   1
  281(0)
  250(bytes(0x04,0x08,0x6f,0x3a,0x0c,0x52,0x50,0x47,0x3a,0x3a,0x53,0x45,0x08,0x3a,0x0a,0x40,0x6e,0x61,0x6d,0x65,0x49,0x22,0x09,0x4d,0x6f,0x76,0x65,0x06,0x3a,0x06,0x45,0x54,0x3a,0x0b,0x40,0x70,0x69,0x74,0x63,0x68,0x69,0x69,0x3a,0x0c,0x40,0x76,0x6f,0x6c,0x75,0x6d,0x65,0x69,0x55))
  TeleportPlayer(0,228,40,3,0,0)
  0()



EVENT   18
 PAGE   1
  281(0)
  250(bytes(0x04,0x08,0x6f,0x3a,0x0c,0x52,0x50,0x47,0x3a,0x3a,0x53,0x45,0x08,0x3a,0x0a,0x40,0x6e,0x61,0x6d,0x65,0x49,0x22,0x09,0x4d,0x6f,0x76,0x65,0x06,0x3a,0x06,0x45,0x54,0x3a,0x0b,0x40,0x70,0x69,0x74,0x63,0x68,0x69,0x69,0x3a,0x0c,0x40,0x76,0x6f,0x6c,0x75,0x6d,0x65,0x69,0x55))
  TeleportPlayer(0,273,11,11,0,0)
  0()



EVENT   19
 PAGE   1
  250(bytes(0x04,0x08,0x6f,0x3a,0x0c,0x52,0x50,0x47,0x3a,0x3a,0x53,0x45,0x08,0x3a,0x0a,0x40,0x6e,0x61,0x6d,0x65,0x49,0x22,0x0a,0x4f,0x70,0x65,0x6e,0x31,0x06,0x3a,0x06,0x45,0x54,0x3a,0x0b,0x40,0x70,0x69,0x74,0x63,0x68,0x69,0x69,0x3a,0x0c,0x40,0x76,0x6f,0x6c,0x75,0x6d,0x65,0x69,0x55))
  205(0,bytes(0x04,0x08,0x6f,0x3a,0x13,0x52,0x50,0x47,0x3a,0x3a,0x4d,0x6f,0x76,0x65,0x52,0x6f,0x75,0x74,0x65,0x09,0x3a,0x0c,0x40,0x72,0x65,0x70,0x65,0x61,0x74,0x46,0x3a,0x0f,0x40,0x73,0x6b,0x69,0x70,0x70,0x61,0x62,0x6c,0x65,0x46,0x3a,0x0a,0x40,0x77,0x61,0x69,0x74,0x54,0x3a,0x0a,0x40,0x6c,0x69,0x73,0x74,0x5b,0x0c,0x6f,0x3a,0x15,0x52,0x50,0x47,0x3a,0x3a,0x4d,0x6f,0x76,0x65,0x43,0x6f,0x6d,0x6d,0x61,0x6e,0x64,0x07,0x3a,0x0a,0x40,0x63,0x6f,0x64,0x65,0x69,0x16,0x3a,0x10,0x40,0x70,0x61,0x72,0x61,0x6d,0x65,0x74,0x65,0x72,0x73,0x5b,0x00,0x6f,0x3b,0x0a,0x07,0x3b,0x0b,0x69,0x14,0x3b,0x0c,0x5b,0x06,0x69,0x08,0x6f,0x3b,0x0a,0x07,0x3b,0x0b,0x69,0x17,0x3b,0x0c,0x5b,0x00,0x6f,0x3b,0x0a,0x07,0x3b,0x0b,0x69,0x14,0x3b,0x0c,0x5b,0x06,0x69,0x08,0x6f,0x3b,0x0a,0x07,0x3b,0x0b,0x69,0x18,0x3b,0x0c,0x5b,0x00,0x6f,0x3b,0x0a,0x07,0x3b,0x0b,0x69,0x2a,0x3b,0x0c,0x5b,0x00,0x6f,0x3b,0x0a,0x07,0x3b,0x0b,0x69,0x00,0x3b,0x0c,0x5b,0x00))
  205(-1,bytes(0x04,0x08,0x6f,0x3a,0x13,0x52,0x50,0x47,0x3a,0x3a,0x4d,0x6f,0x76,0x65,0x52,0x6f,0x75,0x74,0x65,0x09,0x3a,0x0c,0x40,0x72,0x65,0x70,0x65,0x61,0x74,0x46,0x3a,0x0f,0x40,0x73,0x6b,0x69,0x70,0x70,0x61,0x62,0x6c,0x65,0x54,0x3a,0x0a,0x40,0x77,0x61,0x69,0x74,0x54,0x3a,0x0a,0x40,0x6c,0x69,0x73,0x74,0x5b,0x07,0x6f,0x3a,0x15,0x52,0x50,0x47,0x3a,0x3a,0x4d,0x6f,0x76,0x65,0x43,0x6f,0x6d,0x6d,0x61,0x6e,0x64,0x07,0x3a,0x0a,0x40,0x63,0x6f,0x64,0x65,0x69,0x11,0x3a,0x10,0x40,0x70,0x61,0x72,0x61,0x6d,0x65,0x74,0x65,0x72,0x73,0x5b,0x00,0x6f,0x3b,0x0a,0x07,0x3b,0x0b,0x69,0x00,0x3b,0x0c,0x5b,0x00))
  281(0)
  250(bytes(0x04,0x08,0x6f,0x3a,0x0c,0x52,0x50,0x47,0x3a,0x3a,0x53,0x45,0x08,0x3a,0x0a,0x40,0x6e,0x61,0x6d,0x65,0x49,0x22,0x09,0x4d,0x6f,0x76,0x65,0x06,0x3a,0x06,0x45,0x54,0x3a,0x0b,0x40,0x70,0x69,0x74,0x63,0x68,0x69,0x69,0x3a,0x0c,0x40,0x76,0x6f,0x6c,0x75,0x6d,0x65,0x69,0x55))
  TeleportPlayer(0,268,11,28,0,0)
  0()



EVENT   20
 PAGE   1
  250(bytes(0x04,0x08,0x6f,0x3a,0x0c,0x52,0x50,0x47,0x3a,0x3a,0x53,0x45,0x08,0x3a,0x0a,0x40,0x6e,0x61,0x6d,0x65,0x49,0x22,0x0a,0x4f,0x70,0x65,0x6e,0x31,0x06,0x3a,0x06,0x45,0x54,0x3a,0x0b,0x40,0x70,0x69,0x74,0x63,0x68,0x69,0x69,0x3a,0x0c,0x40,0x76,0x6f,0x6c,0x75,0x6d,0x65,0x69,0x55))
  205(0,bytes(0x04,0x08,0x6f,0x3a,0x13,0x52,0x50,0x47,0x3a,0x3a,0x4d,0x6f,0x76,0x65,0x52,0x6f,0x75,0x74,0x65,0x09,0x3a,0x0c,0x40,0x72,0x65,0x70,0x65,0x61,0x74,0x46,0x3a,0x0f,0x40,0x73,0x6b,0x69,0x70,0x70,0x61,0x62,0x6c,0x65,0x46,0x3a,0x0a,0x40,0x77,0x61,0x69,0x74,0x54,0x3a,0x0a,0x40,0x6c,0x69,0x73,0x74,0x5b,0x0c,0x6f,0x3a,0x15,0x52,0x50,0x47,0x3a,0x3a,0x4d,0x6f,0x76,0x65,0x43,0x6f,0x6d,0x6d,0x61,0x6e,0x64,0x07,0x3a,0x0a,0x40,0x63,0x6f,0x64,0x65,0x69,0x16,0x3a,0x10,0x40,0x70,0x61,0x72,0x61,0x6d,0x65,0x74,0x65,0x72,0x73,0x5b,0x00,0x6f,0x3b,0x0a,0x07,0x3b,0x0b,0x69,0x14,0x3b,0x0c,0x5b,0x06,0x69,0x08,0x6f,0x3b,0x0a,0x07,0x3b,0x0b,0x69,0x17,0x3b,0x0c,0x5b,0x00,0x6f,0x3b,0x0a,0x07,0x3b,0x0b,0x69,0x14,0x3b,0x0c,0x5b,0x06,0x69,0x08,0x6f,0x3b,0x0a,0x07,0x3b,0x0b,0x69,0x18,0x3b,0x0c,0x5b,0x00,0x6f,0x3b,0x0a,0x07,0x3b,0x0b,0x69,0x2a,0x3b,0x0c,0x5b,0x00,0x6f,0x3b,0x0a,0x07,0x3b,0x0b,0x69,0x00,0x3b,0x0c,0x5b,0x00))
  205(-1,bytes(0x04,0x08,0x6f,0x3a,0x13,0x52,0x50,0x47,0x3a,0x3a,0x4d,0x6f,0x76,0x65,0x52,0x6f,0x75,0x74,0x65,0x09,0x3a,0x0c,0x40,0x72,0x65,0x70,0x65,0x61,0x74,0x46,0x3a,0x0f,0x40,0x73,0x6b,0x69,0x70,0x70,0x61,0x62,0x6c,0x65,0x54,0x3a,0x0a,0x40,0x77,0x61,0x69,0x74,0x54,0x3a,0x0a,0x40,0x6c,0x69,0x73,0x74,0x5b,0x07,0x6f,0x3a,0x15,0x52,0x50,0x47,0x3a,0x3a,0x4d,0x6f,0x76,0x65,0x43,0x6f,0x6d,0x6d,0x61,0x6e,0x64,0x07,0x3a,0x0a,0x40,0x63,0x6f,0x64,0x65,0x69,0x11,0x3a,0x10,0x40,0x70,0x61,0x72,0x61,0x6d,0x65,0x74,0x65,0x72,0x73,0x5b,0x00,0x6f,0x3b,0x0a,0x07,0x3b,0x0b,0x69,0x00,0x3b,0x0c,0x5b,0x00))
  281(0)
  250(bytes(0x04,0x08,0x6f,0x3a,0x0c,0x52,0x50,0x47,0x3a,0x3a,0x53,0x45,0x08,0x3a,0x0a,0x40,0x6e,0x61,0x6d,0x65,0x49,0x22,0x09,0x4d,0x6f,0x76,0x65,0x06,0x3a,0x06,0x45,0x54,0x3a,0x0b,0x40,0x70,0x69,0x74,0x63,0x68,0x69,0x69,0x3a,0x0c,0x40,0x76,0x6f,0x6c,0x75,0x6d,0x65,0x69,0x55))
  TeleportPlayer(0,269,27,21,0,0)
  0()



EVENT   21
 PAGE   1
  281(0)
  250(bytes(0x04,0x08,0x6f,0x3a,0x0c,0x52,0x50,0x47,0x3a,0x3a,0x53,0x45,0x08,0x3a,0x0a,0x40,0x6e,0x61,0x6d,0x65,0x49,0x22,0x09,0x4d,0x6f,0x76,0x65,0x06,0x3a,0x06,0x45,0x54,0x3a,0x0b,0x40,0x70,0x69,0x74,0x63,0x68,0x69,0x69,0x3a,0x0c,0x40,0x76,0x6f,0x6c,0x75,0x6d,0x65,0x69,0x55))
  TeleportPlayer(0,271,19,41,0,0)
  0()



EVENT   26
 PAGE   1
  281(0)
  250(bytes(0x04,0x08,0x6f,0x3a,0x0c,0x52,0x50,0x47,0x3a,0x3a,0x53,0x45,0x08,0x3a,0x0a,0x40,0x6e,0x61,0x6d,0x65,0x49,0x22,0x09,0x4d,0x6f,0x76,0x65,0x06,0x3a,0x06,0x45,0x54,0x3a,0x0b,0x40,0x70,0x69,0x74,0x63,0x68,0x69,0x69,0x3a,0x0c,0x40,0x76,0x6f,0x6c,0x75,0x6d,0x65,0x69,0x55))
  TeleportPlayer(0,230,24,5,0,0)
  0()



EVENT   27
 PAGE   1
  281(0)
  250(bytes(0x04,0x08,0x6f,0x3a,0x0c,0x52,0x50,0x47,0x3a,0x3a,0x53,0x45,0x08,0x3a,0x0a,0x40,0x6e,0x61,0x6d,0x65,0x49,0x22,0x09,0x4d,0x6f,0x76,0x65,0x06,0x3a,0x06,0x45,0x54,0x3a,0x0b,0x40,0x70,0x69,0x74,0x63,0x68,0x69,0x69,0x3a,0x0c,0x40,0x76,0x6f,0x6c,0x75,0x6d,0x65,0x69,0x55))
  TeleportPlayer(0,270,33,25,4,0)
  0()



EVENT   15
 PAGE   1
  281(0)
  250(bytes(0x04,0x08,0x6f,0x3a,0x0c,0x52,0x50,0x47,0x3a,0x3a,0x53,0x45,0x08,0x3a,0x0a,0x40,0x6e,0x61,0x6d,0x65,0x49,0x22,0x09,0x4d,0x6f,0x76,0x65,0x06,0x3a,0x06,0x45,0x54,0x3a,0x0b,0x40,0x70,0x69,0x74,0x63,0x68,0x69,0x69,0x3a,0x0c,0x40,0x76,0x6f,0x6c,0x75,0x6d,0x65,0x69,0x55))
  TeleportPlayer(0,228,40,3,0,0)
  0()



EVENT   16
 PAGE   1
  281(0)
  250(bytes(0x04,0x08,0x6f,0x3a,0x0c,0x52,0x50,0x47,0x3a,0x3a,0x53,0x45,0x08,0x3a,0x0a,0x40,0x6e,0x61,0x6d,0x65,0x49,0x22,0x09,0x4d,0x6f,0x76,0x65,0x06,0x3a,0x06,0x45,0x54,0x3a,0x0b,0x40,0x70,0x69,0x74,0x63,0x68,0x69,0x69,0x3a,0x0c,0x40,0x76,0x6f,0x6c,0x75,0x6d,0x65,0x69,0x55))
  TeleportPlayer(0,228,40,3,0,0)
  0()



EVENT   17
 PAGE   1
  281(0)
  250(bytes(0x04,0x08,0x6f,0x3a,0x0c,0x52,0x50,0x47,0x3a,0x3a,0x53,0x45,0x08,0x3a,0x0a,0x40,0x6e,0x61,0x6d,0x65,0x49,0x22,0x09,0x4d,0x6f,0x76,0x65,0x06,0x3a,0x06,0x45,0x54,0x3a,0x0b,0x40,0x70,0x69,0x74,0x63,0x68,0x69,0x69,0x3a,0x0c,0x40,0x76,0x6f,0x6c,0x75,0x6d,0x65,0x69,0x55))
  TeleportPlayer(0,273,12,11,0,0)
  0()



EVENT   24
 PAGE   1
  281(0)
  250(bytes(0x04,0x08,0x6f,0x3a,0x0c,0x52,0x50,0x47,0x3a,0x3a,0x53,0x45,0x08,0x3a,0x0a,0x40,0x6e,0x61,0x6d,0x65,0x49,0x22,0x09,0x4d,0x6f,0x76,0x65,0x06,0x3a,0x06,0x45,0x54,0x3a,0x0b,0x40,0x70,0x69,0x74,0x63,0x68,0x69,0x69,0x3a,0x0c,0x40,0x76,0x6f,0x6c,0x75,0x6d,0x65,0x69,0x55))
  TeleportPlayer(0,230,24,5,0,0)
  0()



EVENT   25
 PAGE   1
  281(0)
  250(bytes(0x04,0x08,0x6f,0x3a,0x0c,0x52,0x50,0x47,0x3a,0x3a,0x53,0x45,0x08,0x3a,0x0a,0x40,0x6e,0x61,0x6d,0x65,0x49,0x22,0x09,0x4d,0x6f,0x76,0x65,0x06,0x3a,0x06,0x45,0x54,0x3a,0x0b,0x40,0x70,0x69,0x74,0x63,0x68,0x69,0x69,0x3a,0x0c,0x40,0x76,0x6f,0x6c,0x75,0x6d,0x65,0x69,0x55))
  TeleportPlayer(0,230,24,5,0,0)
  0()



EVENT   22
 PAGE   1
  281(0)
  250(bytes(0x04,0x08,0x6f,0x3a,0x0c,0x52,0x50,0x47,0x3a,0x3a,0x53,0x45,0x08,0x3a,0x0a,0x40,0x6e,0x61,0x6d,0x65,0x49,0x22,0x09,0x4d,0x6f,0x76,0x65,0x06,0x3a,0x06,0x45,0x54,0x3a,0x0b,0x40,0x70,0x69,0x74,0x63,0x68,0x69,0x69,0x3a,0x0c,0x40,0x76,0x6f,0x6c,0x75,0x6d,0x65,0x69,0x55))
  TeleportPlayer(0,271,19,41,0,0)
  0()



EVENT   23
 PAGE   1
  281(0)
  250(bytes(0x04,0x08,0x6f,0x3a,0x0c,0x52,0x50,0x47,0x3a,0x3a,0x53,0x45,0x08,0x3a,0x0a,0x40,0x6e,0x61,0x6d,0x65,0x49,0x22,0x09,0x4d,0x6f,0x76,0x65,0x06,0x3a,0x06,0x45,0x54,0x3a,0x0b,0x40,0x70,0x69,0x74,0x63,0x68,0x69,0x69,0x3a,0x0c,0x40,0x76,0x6f,0x6c,0x75,0x6d,0x65,0x69,0x55))
  TeleportPlayer(0,271,19,41,0,0)
  0()



EVENT   28
 PAGE   1
  281(0)
  250(bytes(0x04,0x08,0x6f,0x3a,0x0c,0x52,0x50,0x47,0x3a,0x3a,0x53,0x45,0x08,0x3a,0x0a,0x40,0x6e,0x61,0x6d,0x65,0x49,0x22,0x09,0x4d,0x6f,0x76,0x65,0x06,0x3a,0x06,0x45,0x54,0x3a,0x0b,0x40,0x70,0x69,0x74,0x63,0x68,0x69,0x69,0x3a,0x0c,0x40,0x76,0x6f,0x6c,0x75,0x6d,0x65,0x69,0x55))
  TeleportPlayer(0,270,33,25,4,0)
  0()



EVENT   29
 PAGE   1
  281(0)
  250(bytes(0x04,0x08,0x6f,0x3a,0x0c,0x52,0x50,0x47,0x3a,0x3a,0x53,0x45,0x08,0x3a,0x0a,0x40,0x6e,0x61,0x6d,0x65,0x49,0x22,0x09,0x4d,0x6f,0x76,0x65,0x06,0x3a,0x06,0x45,0x54,0x3a,0x0b,0x40,0x70,0x69,0x74,0x63,0x68,0x69,0x69,0x3a,0x0c,0x40,0x76,0x6f,0x6c,0x75,0x6d,0x65,0x69,0x55))
  TeleportPlayer(0,270,33,25,4,0)
  0()



EVENT   30
 PAGE   1
  281(0)
  250(bytes(0x04,0x08,0x6f,0x3a,0x0c,0x52,0x50,0x47,0x3a,0x3a,0x53,0x45,0x08,0x3a,0x0a,0x40,0x6e,0x61,0x6d,0x65,0x49,0x22,0x09,0x4d,0x6f,0x76,0x65,0x06,0x3a,0x06,0x45,0x54,0x3a,0x0b,0x40,0x70,0x69,0x74,0x63,0x68,0x69,0x69,0x3a,0x0c,0x40,0x76,0x6f,0x6c,0x75,0x6d,0x65,0x69,0x55))
  TeleportPlayer(0,270,33,25,4,0)
  0()



EVENT   31
 PAGE   1
  281(0)
  250(bytes(0x04,0x08,0x6f,0x3a,0x0c,0x52,0x50,0x47,0x3a,0x3a,0x53,0x45,0x08,0x3a,0x0a,0x40,0x6e,0x61,0x6d,0x65,0x49,0x22,0x09,0x4d,0x6f,0x76,0x65,0x06,0x3a,0x06,0x45,0x54,0x3a,0x0b,0x40,0x70,0x69,0x74,0x63,0x68,0x69,0x69,0x3a,0x0c,0x40,0x76,0x6f,0x6c,0x75,0x6d,0x65,0x69,0x55))
  TeleportPlayer(0,270,33,25,4,0)
  0()



EVENT   32
 PAGE   1
  281(0)
  250(bytes(0x04,0x08,0x6f,0x3a,0x0c,0x52,0x50,0x47,0x3a,0x3a,0x53,0x45,0x08,0x3a,0x0a,0x40,0x6e,0x61,0x6d,0x65,0x49,0x22,0x09,0x4d,0x6f,0x76,0x65,0x06,0x3a,0x06,0x45,0x54,0x3a,0x0b,0x40,0x70,0x69,0x74,0x63,0x68,0x69,0x69,0x3a,0x0c,0x40,0x76,0x6f,0x6c,0x75,0x6d,0x65,0x69,0x55))
  TeleportPlayer(0,270,33,25,4,0)
  0()



EVENT   33
 PAGE   1
  281(0)
  250(bytes(0x04,0x08,0x6f,0x3a,0x0c,0x52,0x50,0x47,0x3a,0x3a,0x53,0x45,0x08,0x3a,0x0a,0x40,0x6e,0x61,0x6d,0x65,0x49,0x22,0x09,0x4d,0x6f,0x76,0x65,0x06,0x3a,0x06,0x45,0x54,0x3a,0x0b,0x40,0x70,0x69,0x74,0x63,0x68,0x69,0x69,0x3a,0x0c,0x40,0x76,0x6f,0x6c,0x75,0x6d,0x65,0x69,0x55))
  TeleportPlayer(0,270,33,25,4,0)
  0()



EVENT   35
 PAGE   1
  // condition: switch 1070 is ON
  PictureDisplay(5,"80_nezumi_st01",0,0,0,0,100,100,0,0)
  PictureMove(5,null,0,0,0,0,100,100,255,0,30,true)
  If(1,3070,0,10,1)
   If(1,4070,0,0,0)
    ChangeVariable(4070,4070,0,0,1)
    ShowMessageFace("nezumi_fc1",1,0,2,1)
    ShowMessage("\\n<Ratty (Affection:\\V[3070])>You can have this... use it wisely.")
    250(bytes(0x04,0x08,0x6f,0x3a,0x0c,0x52,0x50,0x47,0x3a,0x3a,0x53,0x45,0x08,0x3a,0x0a,0x40,0x6e,0x61,0x6d,0x65,0x49,0x22,0x0a,0x49,0x74,0x65,0x6d,0x31,0x06,0x3a,0x06,0x45,0x54,0x3a,0x0b,0x40,0x70,0x69,0x74,0x63,0x68,0x69,0x69,0x3a,0x0c,0x40,0x76,0x6f,0x6c,0x75,0x6d,0x65,0x69,0x55))
    ChangeInventory_Item(13,0,0,1)
    0()
   EndIf()
   0()
  EndIf()
  If(1,3070,0,100,1)
   If(1,4070,0,1,0)
    ChangeVariable(4070,4070,0,0,2)
    ShowMessageFace("nezumi_fc1",1,0,2,2)
    ShowMessage("\\n<Ratty (Affection:\\V[3070])>You can have this... use it wisely.")
    250(bytes(0x04,0x08,0x6f,0x3a,0x0c,0x52,0x50,0x47,0x3a,0x3a,0x53,0x45,0x08,0x3a,0x0a,0x40,0x6e,0x61,0x6d,0x65,0x49,0x22,0x0a,0x49,0x74,0x65,0x6d,0x31,0x06,0x3a,0x06,0x45,0x54,0x3a,0x0b,0x40,0x70,0x69,0x74,0x63,0x68,0x69,0x69,0x3a,0x0c,0x40,0x76,0x6f,0x6c,0x75,0x6d,0x65,0x69,0x55))
    ChangeInventoryArmor(1036,0,0,1,false)
    0()
   EndIf()
   0()
  EndIf()
  If(1,3070,0,500,1)
   If(1,4070,0,2,0)
    ChangeVariable(4070,4070,0,0,3)
    ShowMessageFace("nezumi_fc1",1,0,2,3)
    ShowMessage("\\n<Ratty (Affection:\\V[3070])>You can have this... use it wisely.")
    250(bytes(0x04,0x08,0x6f,0x3a,0x0c,0x52,0x50,0x47,0x3a,0x3a,0x53,0x45,0x08,0x3a,0x0a,0x40,0x6e,0x61,0x6d,0x65,0x49,0x22,0x0a,0x49,0x74,0x65,0x6d,0x31,0x06,0x3a,0x06,0x45,0x54,0x3a,0x0b,0x40,0x70,0x69,0x74,0x63,0x68,0x69,0x69,0x3a,0x0c,0x40,0x76,0x6f,0x6c,0x75,0x6d,0x65,0x69,0x55))
    ChangeInventoryArmor(1548,0,0,1,false)
    0()
   EndIf()
   0()
  EndIf()
  If(1,3070,0,2000,1)
   If(1,4070,0,3,0)
    ChangeVariable(4070,4070,0,0,4)
    ShowMessageFace("nezumi_fc1",1,0,2,4)
    ShowMessage("\\n<Ratty (Affection:\\V[3070])>You can have this... use it wisely.")
    250(bytes(0x04,0x08,0x6f,0x3a,0x0c,0x52,0x50,0x47,0x3a,0x3a,0x53,0x45,0x08,0x3a,0x0a,0x40,0x6e,0x61,0x6d,0x65,0x49,0x22,0x0a,0x49,0x74,0x65,0x6d,0x31,0x06,0x3a,0x06,0x45,0x54,0x3a,0x0b,0x40,0x70,0x69,0x74,0x63,0x68,0x69,0x69,0x3a,0x0c,0x40,0x76,0x6f,0x6c,0x75,0x6d,0x65,0x69,0x55))
    ChangeInventoryArmor(1422,0,0,1,false)
    0()
   EndIf()
   0()
  EndIf()
  355("actor_label_jump")
  ShowMessageFace("nezumi_fc1",1,0,2,5)
  ShowMessage("\\n<Ratty (Affection:\\V[3070])>Ah! I-I wasn't doing anything... I wasn't stealing food.")
  JumpToLabel("メニュー")
  DefineLabel("5")
  ShowMessageFace("nezumi_fc1",0,0,2,6)
  ShowMessage("\\n<Ratty (Affection:\\V[3070])>*Nibble* *Nibble*")
  ShowMessageFace("alice_fc5",2,0,2,7)
  ShowMessage("\\n<Alice (Affection:\\V[3005])>You! What are you doing?! Stealing food right under the monster lord's nose, you are one bold mouse!")
  ShowMessageFace("nezumi_fc1",1,0,2,8)
  ShowMessage("\\n<Ratty (Affection:\\V[3070])>Ahh! I was caught! I'll give you some cheese. So keep it a secret, ok?")
  ShowMessageFace("alice_fc5",7,0,2,9)
  ShowMessage("\\n<Alice (Affection:\\V[3005])>*Nom* Delicious. ♪")
  ShowMessageFace("nezumi_fc1",0,0,2,10)
  ShowMessage("\\n<Ratty (Affection:\\V[3070])>*Nibble* *Nibble*")
  ShowMessageFace("ruka_fc1",0,0,2,11)
  ShowMessage("\\n<Luka>（...Alice also has the habit of stealing food.）")
  JumpToLabel("メニュー")
  DefineLabel("71")
  ShowMessageFace("nezumi_fc1",0,0,2,12)
  ShowMessage("\\n<Ratty (Affection:\\V[3070])>I am not strong like a wolf... I wonder if I can do anything to make me stronger?")
  ShowMessageFace("okami_fc1",0,0,2,13)
  ShowMessage("\\n<Amara (Affection:\\V[3071])>Have you tried howling as loud as you possibly can?")
  ShowMessageFace("nezumi_fc1",2,0,2,14)
  ShowMessage("\\n<Ratty (Affection:\\V[3070])>SQUEEEEK!!")
  ShowMessageFace("okami_fc1",2,0,2,15)
  ShowMessage("\\n<Amara (Affection:\\V[3071])>Uhh, what? ...that was terrible.")
  JumpToLabel("メニュー")
  DefineLabel("88")
  ShowMessageFace("nezumi_fc1",0,0,2,16)
  ShowMessage("\\n<Ratty (Affection:\\V[3070])>It's a pumpkin... hey, is it okay if I nibble on it?")
  ShowMessageFace("jack_fc1",0,0,2,17)
  ShowMessage("\\n<Pumpkin (Affection:\\V[3088])>No way...")
  ShowMessageFace("nezumi_fc1",0,0,2,18)
  ShowMessage("\\n<Ratty (Affection:\\V[3070])>*nibble* *nibble*")
  ShowMessageFace("jack_fc1",2,0,2,19)
  ShowMessage("\\n<Pumpkin (Affection:\\V[3088])>Stop it!")
  JumpToLabel("メニュー")
  DefineLabel("メニュー")
  StartLoop()
   355("unlimited_choices(11, [\"Give presents\",")
   655("\"Add to party\",")
   655("\"View present list\",\"Request\",")
   655("\"Never mind\"])")
   If(1,11,0,0,0)
    355("present_start(70)")
    0()
   EndIf()
   If(1,11,0,1,0)
    PictureClear(5)
    355("move_actor_ex(70)")
    EndEventProcessing()
    0()
   EndIf()
   If(1,11,0,2,0)
    ShowMessageFace("",0,0,2,20)
    ShowMessage("Affection   10:\\ii[13]")
    ShowMessage("Affection  100:\\ia[1036]")
    ShowMessage("Affection  500:\\ia[1548]")
    ShowMessage("Affection 2000:\\ia[1422]")
    0()
   EndIf()
   If(1,11,0,3,0)
    PictureClear(5)
    ShowMessageFace("",0,0,2,21)
    ShowMessage("Ask her for what? (Affection:\\V[3070])")
    ShowChoices(strings("Handjob(Affection:10）","Tailjob(Affection:30）","Reverse rape(Affection:100）","Never mind"),4)
    IfPlayerPicksChoice(0,null)
     If(1,3070,0,10,1)
      355("call_novel_scene(4141)")
      EndEventProcessing()
      0()
     Else()
      ShowMessageFace("nezumi_fc1",0,0,2,22)
      ShowMessage("\\n<Ratty (Affection:\\V[3070])>Next time...")
      0()
     EndIf()
     0()
    IfPlayerPicksChoice(1,null)
     If(1,3070,0,30,1)
      355("call_novel_scene(4142)")
      EndEventProcessing()
      0()
     Else()
      ShowMessageFace("nezumi_fc1",0,0,2,23)
      ShowMessage("\\n<Ratty (Affection:\\V[3070])>Next time...")
      0()
     EndIf()
     0()
    IfPlayerPicksChoice(2,null)
     If(1,3070,0,100,1)
      355("call_novel_scene(4143)")
      EndEventProcessing()
      0()
     Else()
      ShowMessageFace("nezumi_fc1",0,0,2,24)
      ShowMessage("\\n<Ratty (Affection:\\V[3070])>Next time...")
      0()
     EndIf()
     0()
    IfPlayerPicksChoice(3,null)
     0()
    404()
    0()
   EndIf()
   If(1,11,0,4,1)
    PictureClear(5)
    EndEventProcessing()
    0()
   EndIf()
   0()
  EndLoop()
  0()
 PAGE   2
  // condition: party contains actor #70
  0()



EVENT   34
 PAGE   1
  // condition: switch 1005 is ON
  PictureDisplay(5,"80_alice_st71",0,0,0,0,100,100,0,0)
  PictureMove(5,null,0,0,0,0,100,100,255,0,30,true)
  If(1,3005,0,10,1)
   If(1,4005,0,0,0)
    ChangeVariable(4005,4005,0,0,1)
    ShowMessageFace("alice_fc5",0,0,2,1)
    ShowMessage("\\n<Alice (Affection:\\V[3005])>As the monster lord I will bestow this upon you. No need to be shy, accept it with my blessings.")
    250(bytes(0x04,0x08,0x6f,0x3a,0x0c,0x52,0x50,0x47,0x3a,0x3a,0x53,0x45,0x08,0x3a,0x0a,0x40,0x6e,0x61,0x6d,0x65,0x49,0x22,0x0a,0x49,0x74,0x65,0x6d,0x31,0x06,0x3a,0x06,0x45,0x54,0x3a,0x0b,0x40,0x70,0x69,0x74,0x63,0x68,0x69,0x69,0x3a,0x0c,0x40,0x76,0x6f,0x6c,0x75,0x6d,0x65,0x69,0x55))
    ChangeInventory_Item(79,0,0,1)
    0()
   EndIf()
   0()
  EndIf()
  If(1,3005,0,100,1)
   If(1,4005,0,1,0)
    ChangeVariable(4005,4005,0,0,2)
    ShowMessageFace("alice_fc5",0,0,2,2)
    ShowMessage("\\n<Alice (Affection:\\V[3005])>As the monster lord I will bestow this upon you. No need to be shy, accept it with my blessings.")
    250(bytes(0x04,0x08,0x6f,0x3a,0x0c,0x52,0x50,0x47,0x3a,0x3a,0x53,0x45,0x08,0x3a,0x0a,0x40,0x6e,0x61,0x6d,0x65,0x49,0x22,0x0a,0x49,0x74,0x65,0x6d,0x31,0x06,0x3a,0x06,0x45,0x54,0x3a,0x0b,0x40,0x70,0x69,0x74,0x63,0x68,0x69,0x69,0x3a,0x0c,0x40,0x76,0x6f,0x6c,0x75,0x6d,0x65,0x69,0x55))
    ChangeInventoryArmor(1026,0,0,1,false)
    0()
   EndIf()
   0()
  EndIf()
  If(1,3005,0,500,1)
   If(1,4005,0,2,0)
    ChangeVariable(4005,4005,0,0,3)
    ShowMessageFace("alice_fc5",0,0,2,3)
    ShowMessage("\\n<Alice (Affection:\\V[3005])>As the monster lord I will bestow this upon you. No need to be shy, accept it with my blessings.")
    250(bytes(0x04,0x08,0x6f,0x3a,0x0c,0x52,0x50,0x47,0x3a,0x3a,0x53,0x45,0x08,0x3a,0x0a,0x40,0x6e,0x61,0x6d,0x65,0x49,0x22,0x0a,0x49,0x74,0x65,0x6d,0x31,0x06,0x3a,0x06,0x45,0x54,0x3a,0x0b,0x40,0x70,0x69,0x74,0x63,0x68,0x69,0x69,0x3a,0x0c,0x40,0x76,0x6f,0x6c,0x75,0x6d,0x65,0x69,0x55))
    ChangeInventoryArmor(1076,0,0,1,false)
    0()
   EndIf()
   0()
  EndIf()
  If(1,3005,0,2000,1)
   If(1,4005,0,3,0)
    ChangeVariable(4005,4005,0,0,4)
    ShowMessageFace("alice_fc5",0,0,2,4)
    ShowMessage("\\n<Alice (Affection:\\V[3005])>As the monster lord I will bestow this upon you. No need to be shy, accept it with my blessings.")
    250(bytes(0x04,0x08,0x6f,0x3a,0x0c,0x52,0x50,0x47,0x3a,0x3a,0x53,0x45,0x08,0x3a,0x0a,0x40,0x6e,0x61,0x6d,0x65,0x49,0x22,0x0a,0x49,0x74,0x65,0x6d,0x31,0x06,0x3a,0x06,0x45,0x54,0x3a,0x0b,0x40,0x70,0x69,0x74,0x63,0x68,0x69,0x69,0x3a,0x0c,0x40,0x76,0x6f,0x6c,0x75,0x6d,0x65,0x69,0x55))
    ChangeInventoryArmor(1209,0,0,1,false)
    0()
   EndIf()
   0()
  EndIf()
  355("actor_label_jump")
  ShowMessageFace("alice_fc5",0,0,2,5)
  ShowMessage("\\n<Alice (Affection:\\V[3005])>My stomach is growling...")
  JumpToLabel("メニュー")
  DefineLabel("70")
  ShowMessageFace("nezumi_fc1",0,0,2,6)
  ShowMessage("\\n<Ratty (Affection:\\V[3070])>*Nibble* *Nibble*")
  ShowMessageFace("alice_fc5",2,0,2,7)
  ShowMessage("\\n<Alice (Affection:\\V[3005])>You! What are you doing?! Stealing food right under the monster lord's nose, you are one bold mouse!")
  ShowMessageFace("nezumi_fc1",1,0,2,8)
  ShowMessage("\\n<Ratty (Affection:\\V[3070])>Ahh! I was caught! I'll give you some cheese. So keep it a secret, ok?")
  ShowMessageFace("alice_fc5",7,0,2,9)
  ShowMessage("\\n<Alice (Affection:\\V[3005])>*Nom* Delicious. ♪")
  ShowMessageFace("nezumi_fc1",0,0,2,10)
  ShowMessage("\\n<Ratty (Affection:\\V[3070])>*Nibble* *Nibble*")
  ShowMessageFace("ruka_fc1",0,0,2,11)
  ShowMessage("\\n<Luka>（...Alice also has the habit of stealing food.）")
  JumpToLabel("メニュー")
  DefineLabel("79")
  ShowMessageFace("nuruko_fc1",0,0,2,12)
  ShowMessage("\\n<Nuruko (Affection:\\V[3079])>Kyukyu~,kyu~. ♪")
  ShowMessageFace("alice_fc5",0,0,2,13)
  ShowMessage("\\n<Alice (Affection:\\V[3005])>Just what manner of creature are you? Lifeforms from another world seem quite strange.")
  ShowMessageFace("nuruko_fc1",0,0,2,14)
  ShowMessage("\\n<Nuruko (Affection:\\V[3079])>Kyu!")
  ShowMessageFace("alice_fc5",1,0,2,15)
  ShowMessage("\\n<Alice (Affection:\\V[3005])>Oh? Are you giving me an apple? Thank you, I accept. *munch* *munch*")
  ShowMessageFace("alice_fc5",7,0,2,16)
  ShowMessage("\\n<Alice (Affection:\\V[3005])>Delicious. ♪")
  ShowMessageFace("nuruko_fc1",0,0,2,17)
  ShowMessage("\\n<Nuruko (Affection:\\V[3079])>Kyu. ♪")
  JumpToLabel("メニュー")
  DefineLabel("102")
  ShowMessageFace("alice_fc5",0,0,2,18)
  ShowMessage("\\n<Alice (Affection:\\V[3005])>Hmph, kitsune...")
  ShowMessageFace("youko_fc1",0,0,2,19)
  ShowMessage("\\n<Kitsu (Affection:\\V[3102])>You wont get my thin fried tofu! I hid it perfectly!")
  ShowMessageFace("alice_fc5",1,0,2,20)
  ShowMessage("\\n<Alice (Affection:\\V[3005])>Oh, your chest shouldn't bulge... Hmhmm, so that's where you've hidden it.")
  ShowMessageFace("youko_fc1",2,0,2,21)
  ShowMessage("\\n<Kitsu (Affection:\\V[3102])>Waaa! My thin fried tofu!")
  ShowMessageFace("alice_fc5",7,0,2,22)
  ShowMessage("\\n<Alice (Affection:\\V[3005])>*Munch* *Munch* ...Wonderful.")
  ShowMessageFace("sonia_fc2",5,0,2,23)
  ShowMessage("\\n<Sonya>Hey! Stop picking on her!")
  JumpToLabel("メニュー")
  DefineLabel("106")
  ShowMessageFace("alice_fc5",0,0,2,24)
  ShowMessage("\\n<Alice (Affection:\\V[3005])>Kitsune...")
  ShowMessageFace("nanabi_fc1",0,0,2,25)
  ShowMessage("\\n<Nanabi (Affection:\\V[3106])>Please don't hate us monster lord. The entire kitsune family is devoted to you.")
  ShowMessageFace("alice_fc5",0,0,2,26)
  ShowMessage("\\n<Alice (Affection:\\V[3005])>Treating me like a child...")
  ShowMessageFace("nanabi_fc1",0,0,2,27)
  ShowMessage("\\n<Nanabi (Affection:\\V[3106])>I know you are not a child... here, have some candy.")
  ShowMessageFace("alice_fc5",7,0,2,28)
  ShowMessage("\\n<Alice (Affection:\\V[3005])>....... ♪")
  ShowMessageFace("alice_fc5",3,0,2,29)
  ShowMessage("\\n<Alice (Affection:\\V[3005])>Do you think I can be enticed with this?")
  ShowMessageFace("nanabi_fc1",0,0,2,30)
  ShowMessage("\\n<Nanabi (Affection:\\V[3106])>So you weren't enticed?")
  JumpToLabel("メニュー")
  DefineLabel("130")
  ShowMessageFace("alice_fc5",0,0,2,31)
  ShowMessage("\\n<Alice (Affection:\\V[3005])>Ghost girl, there is no reason to be scared of you. Your existence can be explained with magical science.")
  ShowMessageFace("ghost_fc1",1,0,2,32)
  ShowMessage("\\n<Carrie (Affection:\\V[3130])>I have unfinished business.")
  ShowMessageFace("alice_fc5",6,0,2,33)
  ShowMessage("\\n<Alice (Affection:\\V[3005])>Ahhh! I wouldn't be scared if you hadn't said that!")
  ShowMessageFace("ghost_fc1",1,0,2,34)
  ShowMessage("\\n<Carrie (Affection:\\V[3130])>Boooowoooowhoooo.")
  ShowMessageFace("alice_fc5",6,0,2,35)
  ShowMessage("\\n<Alice (Affection:\\V[3005])>Ahhhhhhh!")
  JumpToLabel("メニュー")
  DefineLabel("161")
  ShowMessageFace("alice_fc5",1,0,2,36)
  ShowMessage("\\n<Alice (Affection:\\V[3005])>I heard your cooking is pretty good. This is your chance to dedicate a special dish to the Monster Lord.")
  ShowMessageFace("ustrel_fc1",0,0,2,37)
  ShowMessage("\\n<Lemon (Affection:\\V[3161])>How about paella?")
  ShowMessageFace("alice_fc5",1,0,2,38)
  ShowMessage("\\n<Alice (Affection:\\V[3005])>Ohh, excellent! What ingredients are you using?")
  ShowMessageFace("ustrel_fc1",0,0,2,39)
  ShowMessage("\\n<Lemon (Affection:\\V[3161])>That is... umm...")
  ShowMessageFace("alice_fc5",5,0,2,40)
  ShowMessage("\\n<Alice (Affection:\\V[3005])>Wait, did I just see you glancing at your lower body?")
  JumpToLabel("メニュー")
  DefineLabel("メニュー")
  StartLoop()
   355("unlimited_choices(11, [\"Give presents\",")
   655("\"Add to party\",")
   655("\"View present list\",\"Request\",")
   655("\"Never mind\"])")
   If(1,11,0,0,0)
    355("present_start(5)")
    0()
   EndIf()
   If(1,11,0,1,0)
    PictureClear(5)
    355("move_actor_ex(5)")
    EndEventProcessing()
    0()
   EndIf()
   If(1,11,0,2,0)
    ShowMessageFace("",0,0,2,41)
    ShowMessage("Affection   10:\\ii[79]")
    ShowMessage("Affection  100:\\ia[1026]")
    ShowMessage("Affection  500:\\ia[1076]")
    ShowMessage("Affection 2000:\\ia[1209]")
    0()
   EndIf()
   If(1,11,0,3,0)
    PictureClear(5)
    ShowMessageFace("",0,0,2,42)
    ShowMessage("Ask her for what? (Affection:\\V[3005])")
    ShowChoices(strings("Blowjob(Affection:50）","Reverse rape(Affection:100）","Never mind"),3)
    IfPlayerPicksChoice(0,null)
     If(1,3005,0,50,1)
      355("call_novel_scene(4001)")
      EndEventProcessing()
      0()
     Else()
      ShowMessageFace("alice_fc5",0,0,2,43)
      ShowMessage("\\n<Alice (Affection:\\V[3005])>Right now, I'm more concerned with satisfying my hunger. Speaking of which, is it time to eat?")
      0()
     EndIf()
     0()
    IfPlayerPicksChoice(1,null)
     If(1,3005,0,100,1)
      355("call_novel_scene(4002)")
      EndEventProcessing()
      0()
     Else()
      ShowMessageFace("alice_fc5",0,0,2,44)
      ShowMessage("\\n<Alice (Affection:\\V[3005])>Right now, I'm more concerned with satisfying my hunger. Speaking of which, is it time to eat?")
      0()
     EndIf()
     0()
    IfPlayerPicksChoice(2,null)
     0()
    404()
    0()
   EndIf()
   If(1,11,0,4,1)
    PictureClear(5)
    EndEventProcessing()
    0()
   EndIf()
   0()
  EndLoop()
  0()
 PAGE   2
  // condition: party contains actor #5
  0()


EVENT   36
 PAGE   1
  RunCommonEvent(111)
  0()



EVENT   39
 PAGE   1
  // condition: switch 1092 is ON
  PictureDisplay(5,"80_eater_st01",0,0,0,0,100,100,0,0)
  PictureMove(5,null,0,0,0,0,100,100,255,0,30,true)
  If(1,3092,0,10,1)
   If(1,4092,0,0,0)
    ChangeVariable(4092,4092,0,0,1)
    ShowMessageFace("eater_fc1",0,0,2,1)
    ShowMessage("\\n<Eater (Affection:\\V[3092])>This isn't yummy... Big brother can have it.")
    250(bytes(0x04,0x08,0x6f,0x3a,0x0c,0x52,0x50,0x47,0x3a,0x3a,0x53,0x45,0x08,0x3a,0x0a,0x40,0x6e,0x61,0x6d,0x65,0x49,0x22,0x0a,0x49,0x74,0x65,0x6d,0x31,0x06,0x3a,0x06,0x45,0x54,0x3a,0x0b,0x40,0x70,0x69,0x74,0x63,0x68,0x69,0x69,0x3a,0x0c,0x40,0x76,0x6f,0x6c,0x75,0x6d,0x65,0x69,0x55))
    ChangeInventory_Item(24,0,0,1)
    0()
   EndIf()
   0()
  EndIf()
  If(1,3092,0,100,1)
   If(1,4092,0,1,0)
    ChangeVariable(4092,4092,0,0,2)
    ShowMessageFace("eater_fc1",0,0,2,2)
    ShowMessage("\\n<Eater (Affection:\\V[3092])>This isn't yummy... Big brother can have it.")
    250(bytes(0x04,0x08,0x6f,0x3a,0x0c,0x52,0x50,0x47,0x3a,0x3a,0x53,0x45,0x08,0x3a,0x0a,0x40,0x6e,0x61,0x6d,0x65,0x49,0x22,0x0a,0x49,0x74,0x65,0x6d,0x31,0x06,0x3a,0x06,0x45,0x54,0x3a,0x0b,0x40,0x70,0x69,0x74,0x63,0x68,0x69,0x69,0x3a,0x0c,0x40,0x76,0x6f,0x6c,0x75,0x6d,0x65,0x69,0x55))
    ChangeInventoryArmor(1021,0,0,1,false)
    0()
   EndIf()
   0()
  EndIf()
  If(1,3092,0,500,1)
   If(1,4092,0,2,0)
    ChangeVariable(4092,4092,0,0,3)
    ShowMessageFace("eater_fc1",0,0,2,3)
    ShowMessage("\\n<Eater (Affection:\\V[3092])>This isn't yummy... Big brother can have it.")
    250(bytes(0x04,0x08,0x6f,0x3a,0x0c,0x52,0x50,0x47,0x3a,0x3a,0x53,0x45,0x08,0x3a,0x0a,0x40,0x6e,0x61,0x6d,0x65,0x49,0x22,0x0a,0x49,0x74,0x65,0x6d,0x31,0x06,0x3a,0x06,0x45,0x54,0x3a,0x0b,0x40,0x70,0x69,0x74,0x63,0x68,0x69,0x69,0x3a,0x0c,0x40,0x76,0x6f,0x6c,0x75,0x6d,0x65,0x69,0x55))
    ChangeInventoryArmor(1576,0,0,1,false)
    0()
   EndIf()
   0()
  EndIf()
  If(1,3092,0,2000,1)
   If(1,4092,0,3,0)
    ChangeVariable(4092,4092,0,0,4)
    ShowMessageFace("eater_fc1",0,0,2,4)
    ShowMessage("\\n<Eater (Affection:\\V[3092])>This isn't yummy... Big brother can have it.")
    250(bytes(0x04,0x08,0x6f,0x3a,0x0c,0x52,0x50,0x47,0x3a,0x3a,0x53,0x45,0x08,0x3a,0x0a,0x40,0x6e,0x61,0x6d,0x65,0x49,0x22,0x0a,0x49,0x74,0x65,0x6d,0x31,0x06,0x3a,0x06,0x45,0x54,0x3a,0x0b,0x40,0x70,0x69,0x74,0x63,0x68,0x69,0x69,0x3a,0x0c,0x40,0x76,0x6f,0x6c,0x75,0x6d,0x65,0x69,0x55))
    ChangeInventoryArmor(1003,0,0,1,false)
    0()
   EndIf()
   0()
  EndIf()
  355("actor_label_jump")
  ShowMessageFace("eater_fc1",4,0,2,5)
  ShowMessage("\\n<Eater (Affection:\\V[3092])>I'm hungry...")
  JumpToLabel("メニュー")
  JumpToLabel("100")
  ShowMessageFace("eater_fc1",4,0,2,6)
  ShowMessage("\\n<Eater (Affection:\\V[3092])>Wow! What a strange flower!")
  ShowMessageFace("rahure_fc1",0,0,2,7)
  ShowMessage("\\n<Fleesia (Affection:\\V[3100])>You are also very strange.")
  ShowMessageFace("eater_fc1",4,0,2,8)
  ShowMessage("\\n<Eater (Affection:\\V[3092])>Even the smell!")
  ShowMessageFace("rahure_fc1",0,0,2,9)
  ShowMessage("\\n<Fleesia (Affection:\\V[3100])>I hate this child.")
  JumpToLabel("メニュー")
  DefineLabel("111")
  ShowMessageFace("eater_fc1",0,0,2,10)
  ShowMessage("\\n<Eater (Affection:\\V[3092])>Is that watermelon yummy?")
  ShowMessageFace("suika_fc1",1,0,2,11)
  ShowMessage("\\n<Melon (Affection:\\V[3111])>It's very yummy... Here, have some. ♪")
  ShowMessageFace("eater_fc1",1,0,2,12)
  ShowMessage("\\n<Eater (Affection:\\V[3092])>*munch* *munch* ...It's sweet! It's yummy!")
  ShowMessageFace("eater_fc1",3,0,2,13)
  ShowMessage("\\n<Eater (Affection:\\V[3092])>...........")
  ShowMessageFace("suika_fc1",2,0,2,14)
  ShowMessage("\\n<Melon (Affection:\\V[3111])>What's with the 'I'm going to eat the horse and rider' look? You're not going to eat me... right?")
  JumpToLabel("メニュー")
  DefineLabel("112")
  ShowMessageFace("utubo_fc1",0,0,2,15)
  ShowMessage("\\n<Kazura (Affection:\\V[3112])>Somehow I have not seen your type before... You are also a carnivorous plant, right?")
  ShowMessageFace("eater_fc1",3,0,2,16)
  ShowMessage("\\n<Eater (Affection:\\V[3092])>I love meat! I go *Nom*!")
  ShowMessageFace("utubo_fc1",0,0,2,17)
  ShowMessage("\\n<Kazura (Affection:\\V[3112])>(I wonder if she is the same as a Venus Flytrap? But she is very meaty...)")
  ShowMessageFace("utubo_fc1",0,0,2,18)
  ShowMessage("\\n<Kazura (Affection:\\V[3112])>(...looks delicious.)")
  ShowMessageFace("eater_fc1",3,0,2,19)
  ShowMessage("\\n<Eater (Affection:\\V[3092])>(...looks delicious.)")
  JumpToLabel("メニュー")
  DefineLabel("メニュー")
  StartLoop()
   355("unlimited_choices(11, [\"Give presents\",")
   655("\"Add to party\",")
   655("\"View present list\",\"Request\",")
   655("\"Never mind\"])")
   If(1,11,0,0,0)
    355("present_start(92)")
    0()
   EndIf()
   If(1,11,0,1,0)
    PictureClear(5)
    355("move_actor_ex(92)")
    EndEventProcessing()
    0()
   EndIf()
   If(1,11,0,2,0)
    ShowMessageFace("",0,0,2,20)
    ShowMessage("Affection   10:\\ii[24]")
    ShowMessage("Affection  100:\\ia[1021]")
    ShowMessage("Affection  500:\\ia[1576]")
    ShowMessage("Affection 2000:\\ia[1003]")
    0()
   EndIf()
   If(1,11,0,3,0)
    PictureClear(5)
    ShowMessageFace("",0,0,2,21)
    ShowMessage("Ask her for what? (Affection:\\V[3092])")
    ShowChoices(strings("Predation(Affection:10）","Never mind"),2)
    IfPlayerPicksChoice(0,null)
     If(1,3092,0,10,1)
      355("call_novel_scene(4251)")
      EndEventProcessing()
      0()
     Else()
      ShowMessageFace("eater_fc1",0,0,2,22)
      ShowMessage("\\n<Eater (Affection:\\V[3092])>My stomach is full right now.")
      0()
     EndIf()
     0()
    IfPlayerPicksChoice(1,null)
     0()
    404()
    0()
   EndIf()
   If(1,11,0,4,1)
    PictureClear(5)
    EndEventProcessing()
    0()
   EndIf()
   0()
  EndLoop()
  0()
 PAGE   2
  // condition: party contains actor #92
  0()



EVENT   40
 PAGE   1
  // condition: switch 1144 is ON
  PictureDisplay(5,"80_saboresu_st01",0,0,0,0,100,100,0,0)
  PictureMove(5,null,0,0,0,0,100,100,255,0,30,true)
  If(1,3144,0,10,1)
   If(1,4144,0,0,0)
    ChangeVariable(4144,4144,0,0,1)
    ShowMessageFace("saboresu_fc1",0,0,2,1)
    ShowMessage("\\n<Sunny (Affection:\\V[3144])>Here, take this. I'm no longer a daily nuisance... right?")
    250(bytes(0x04,0x08,0x6f,0x3a,0x0c,0x52,0x50,0x47,0x3a,0x3a,0x53,0x45,0x08,0x3a,0x0a,0x40,0x6e,0x61,0x6d,0x65,0x49,0x22,0x0a,0x49,0x74,0x65,0x6d,0x31,0x06,0x3a,0x06,0x45,0x54,0x3a,0x0b,0x40,0x70,0x69,0x74,0x63,0x68,0x69,0x69,0x3a,0x0c,0x40,0x76,0x6f,0x6c,0x75,0x6d,0x65,0x69,0x55))
    ChangeInventoryWeapon(670,0,0,1,false)
    0()
   EndIf()
   0()
  EndIf()
  If(1,3144,0,100,1)
   If(1,4144,0,1,0)
    ChangeVariable(4144,4144,0,0,2)
    ShowMessageFace("saboresu_fc1",0,0,2,2)
    ShowMessage("\\n<Sunny (Affection:\\V[3144])>Here, take this. I'm no longer a daily nuisance... right?")
    250(bytes(0x04,0x08,0x6f,0x3a,0x0c,0x52,0x50,0x47,0x3a,0x3a,0x53,0x45,0x08,0x3a,0x0a,0x40,0x6e,0x61,0x6d,0x65,0x49,0x22,0x0a,0x49,0x74,0x65,0x6d,0x31,0x06,0x3a,0x06,0x45,0x54,0x3a,0x0b,0x40,0x70,0x69,0x74,0x63,0x68,0x69,0x69,0x3a,0x0c,0x40,0x76,0x6f,0x6c,0x75,0x6d,0x65,0x69,0x55))
    ChangeInventoryArmor(1054,0,0,1,false)
    0()
   EndIf()
   0()
  EndIf()
  If(1,3144,0,500,1)
   If(1,4144,0,2,0)
    ChangeVariable(4144,4144,0,0,3)
    ShowMessageFace("saboresu_fc1",0,0,2,3)
    ShowMessage("\\n<Sunny (Affection:\\V[3144])>Here, take this. I'm no longer a daily nuisance... right?")
    250(bytes(0x04,0x08,0x6f,0x3a,0x0c,0x52,0x50,0x47,0x3a,0x3a,0x53,0x45,0x08,0x3a,0x0a,0x40,0x6e,0x61,0x6d,0x65,0x49,0x22,0x0a,0x49,0x74,0x65,0x6d,0x31,0x06,0x3a,0x06,0x45,0x54,0x3a,0x0b,0x40,0x70,0x69,0x74,0x63,0x68,0x69,0x69,0x3a,0x0c,0x40,0x76,0x6f,0x6c,0x75,0x6d,0x65,0x69,0x55))
    ChangeInventoryArmor(1162,0,0,1,false)
    0()
   EndIf()
   0()
  EndIf()
  If(1,3144,0,2000,1)
   If(1,4144,0,3,0)
    ChangeVariable(4144,4144,0,0,4)
    ShowMessageFace("saboresu_fc1",0,0,2,4)
    ShowMessage("\\n<Sunny (Affection:\\V[3144])>Here, take this. I'm no longer a daily nuisance... right?")
    250(bytes(0x04,0x08,0x6f,0x3a,0x0c,0x52,0x50,0x47,0x3a,0x3a,0x53,0x45,0x08,0x3a,0x0a,0x40,0x6e,0x61,0x6d,0x65,0x49,0x22,0x0a,0x49,0x74,0x65,0x6d,0x31,0x06,0x3a,0x06,0x45,0x54,0x3a,0x0b,0x40,0x70,0x69,0x74,0x63,0x68,0x69,0x69,0x3a,0x0c,0x40,0x76,0x6f,0x6c,0x75,0x6d,0x65,0x69,0x55))
    ChangeInventoryArmor(1700,0,0,1,false)
    0()
   EndIf()
   0()
  EndIf()
  355("actor_label_jump")
  ShowMessageFace("saboresu_fc1",0,0,2,5)
  ShowMessage("\\n<Sunny (Affection:\\V[3144])>Ohh, I want to be a pirate... The sea is calling me.")
  JumpToLabel("メニュー")
  DefineLabel("117")
  ShowMessageFace("ankou_fc1",0,0,2,6)
  ShowMessage("\\n<Anko (Affection:\\V[3117])>............")
  ShowMessageFace("saboresu_fc1",0,0,2,7)
  ShowMessage("\\n<Sunny (Affection:\\V[3144])>There are some strange fish in the sea, huh? I wonder if she could become a pirate?")
  ShowMessageFace("ankou_fc1",0,0,2,8)
  ShowMessage("\\n<Anko (Affection:\\V[3117])>............")
  ShowMessageFace("saboresu_fc1",0,0,2,9)
  ShowMessage("\\n<Sunny (Affection:\\V[3144])>Stop holding your lure out... You're not going to catch me.")
  JumpToLabel("メニュー")
  DefineLabel("118")
  ShowMessageFace("saboresu_fc1",0,0,2,10)
  ShowMessage("\\n<Sunny (Affection:\\V[3144])>Hey, I want to be a pirate.")
  ShowMessageFace("meia_fc1",0,0,2,11)
  ShowMessage("\\n<Meia (Affection:\\V[3118])>Speaking of pirates, they loot and pillage right? Are you interested in selling kidnapped little boys?")
  ShowMessageFace("saboresu_fc1",2,0,2,12)
  ShowMessage("\\n<Sunny (Affection:\\V[3144])>That's just you.")
  JumpToLabel("メニュー")
  DefineLabel("161")
  ShowMessageFace("saboresu_fc1",0,0,2,13)
  ShowMessage("\\n<Sunny (Affection:\\V[3144])>You are also a subspecies of Scylla?")
  ShowMessageFace("ustrel_fc1",0,0,2,14)
  ShowMessage("\\n<Lemon (Affection:\\V[3161])>Yeah, I am tentatively a Scylla. The children on my lower body are not purely tentacles but...")
  ShowMessageFace("saboresu_fc1",0,0,2,15)
  ShowMessage("\\n<Sunny (Affection:\\V[3144])>We both have it pretty rough, huh? Our lower children will randomly lash out.")
  ShowMessageFace("ustrel_fc1",0,0,2,16)
  ShowMessage("\\n<Lemon (Affection:\\V[3161])>Those are terrible times, I think I'm about to be eaten. It's really very strange.")
  JumpToLabel("メニュー")
  DefineLabel("メニュー")
  StartLoop()
   355("unlimited_choices(11, [\"Give presents\",")
   655("\"Add to party\",")
   655("\"View present list\",\"Request\",")
   655("\"Never mind\"])")
   If(1,11,0,0,0)
    355("present_start(144)")
    0()
   EndIf()
   If(1,11,0,1,0)
    PictureClear(5)
    355("move_actor_ex(144)")
    EndEventProcessing()
    0()
   EndIf()
   If(1,11,0,2,0)
    ShowMessageFace("",0,0,2,17)
    ShowMessage("Affection   10:\\iw[670]")
    ShowMessage("Affection  100:\\ia[1054]")
    ShowMessage("Affection  500:\\ia[1162]")
    ShowMessage("Affection 2000:\\ia[1700]")
    0()
   EndIf()
   If(1,11,0,3,0)
    PictureClear(5)
    ShowMessageFace("",0,0,2,18)
    ShowMessage("Ask her for what? (Affection:\\V[3144])")
    ShowChoices(strings("Semen Squeezing Hole(Affection:10）","Never mind"),2)
    IfPlayerPicksChoice(0,null)
     If(1,3144,0,10,1)
      355("call_novel_scene(4521)")
      EndEventProcessing()
      0()
     Else()
      ShowMessageFace("saboresu_fc1",0,0,2,19)
      ShowMessage("\\n<Sunny (Affection:\\V[3144])>I'll pass today.")
      0()
     EndIf()
     0()
    IfPlayerPicksChoice(1,null)
     0()
    404()
    0()
   EndIf()
   If(1,11,0,4,1)
    PictureClear(5)
    EndEventProcessing()
    0()
   EndIf()
   0()
  EndLoop()
  0()
 PAGE   2
  // condition: party contains actor #144
  0()



EVENT   41
 PAGE   1
  // condition: switch 1141 is ON
  PictureDisplay(5,"80_mino_st01",0,0,0,0,100,100,0,0)
  PictureMove(5,null,0,0,0,0,100,100,255,0,30,true)
  If(1,3141,0,10,1)
   If(1,4141,0,0,0)
    ChangeVariable(4141,4141,0,0,1)
    ShowMessageFace("mino_fc1",0,0,2,1)
    ShowMessage("\\n<Mina (Affection:\\V[3141])>Here, take this. It's not stolen, I bought it with money I made through honest work.")
    250(bytes(0x04,0x08,0x6f,0x3a,0x0c,0x52,0x50,0x47,0x3a,0x3a,0x53,0x45,0x08,0x3a,0x0a,0x40,0x6e,0x61,0x6d,0x65,0x49,0x22,0x0a,0x49,0x74,0x65,0x6d,0x31,0x06,0x3a,0x06,0x45,0x54,0x3a,0x0b,0x40,0x70,0x69,0x74,0x63,0x68,0x69,0x69,0x3a,0x0c,0x40,0x76,0x6f,0x6c,0x75,0x6d,0x65,0x69,0x55))
    ChangeInventoryWeapon(371,0,0,1,false)
    0()
   EndIf()
   0()
  EndIf()
  If(1,3141,0,100,1)
   If(1,4141,0,1,0)
    ChangeVariable(4141,4141,0,0,2)
    ShowMessageFace("mino_fc1",0,0,2,2)
    ShowMessage("\\n<Mina (Affection:\\V[3141])>Here, take this. It's not stolen, I bought it with money I made through honest work.")
    250(bytes(0x04,0x08,0x6f,0x3a,0x0c,0x52,0x50,0x47,0x3a,0x3a,0x53,0x45,0x08,0x3a,0x0a,0x40,0x6e,0x61,0x6d,0x65,0x49,0x22,0x0a,0x49,0x74,0x65,0x6d,0x31,0x06,0x3a,0x06,0x45,0x54,0x3a,0x0b,0x40,0x70,0x69,0x74,0x63,0x68,0x69,0x69,0x3a,0x0c,0x40,0x76,0x6f,0x6c,0x75,0x6d,0x65,0x69,0x55))
    ChangeInventoryArmor(1016,0,0,1,false)
    0()
   EndIf()
   0()
  EndIf()
  If(1,3141,0,500,1)
   If(1,4141,0,2,0)
    ChangeVariable(4141,4141,0,0,3)
    ShowMessageFace("mino_fc1",0,0,2,3)
    ShowMessage("\\n<Mina (Affection:\\V[3141])>Here, take this. It's not stolen, I bought it with money I made through honest work.")
    250(bytes(0x04,0x08,0x6f,0x3a,0x0c,0x52,0x50,0x47,0x3a,0x3a,0x53,0x45,0x08,0x3a,0x0a,0x40,0x6e,0x61,0x6d,0x65,0x49,0x22,0x0a,0x49,0x74,0x65,0x6d,0x31,0x06,0x3a,0x06,0x45,0x54,0x3a,0x0b,0x40,0x70,0x69,0x74,0x63,0x68,0x69,0x69,0x3a,0x0c,0x40,0x76,0x6f,0x6c,0x75,0x6d,0x65,0x69,0x55))
    ChangeInventoryArmor(1306,0,0,1,false)
    0()
   EndIf()
   0()
  EndIf()
  If(1,3141,0,2000,1)
   If(1,4141,0,3,0)
    ChangeVariable(4141,4141,0,0,4)
    ShowMessageFace("mino_fc1",0,0,2,4)
    ShowMessage("\\n<Mina (Affection:\\V[3141])>Here, take this. It's not stolen, I bought it with money I made through honest work.")
    250(bytes(0x04,0x08,0x6f,0x3a,0x0c,0x52,0x50,0x47,0x3a,0x3a,0x53,0x45,0x08,0x3a,0x0a,0x40,0x6e,0x61,0x6d,0x65,0x49,0x22,0x0a,0x49,0x74,0x65,0x6d,0x31,0x06,0x3a,0x06,0x45,0x54,0x3a,0x0b,0x40,0x70,0x69,0x74,0x63,0x68,0x69,0x69,0x3a,0x0c,0x40,0x76,0x6f,0x6c,0x75,0x6d,0x65,0x69,0x55))
    ChangeInventoryArmor(1121,0,0,1,false)
    0()
   EndIf()
   0()
  EndIf()
  355("actor_label_jump")
  ShowMessageFace("mino_fc1",0,0,2,5)
  ShowMessage("\\n<Mina (Affection:\\V[3141])>Hey! Feed me beef bowl!")
  JumpToLabel("メニュー")
  DefineLabel("60")
  ShowMessageFace("dog_fc1",0,0,2,6)
  ShowMessage("\\n<Pochi (Affection:\\V[3060])>It's Mina!")
  ShowMessageFace("mino_fc1",0,0,2,7)
  ShowMessage("\\n<Mina (Affection:\\V[3141])>Ah! Have you been eating meat, Pochi?")
  ShowMessageFace("dog_fc1",1,0,2,8)
  ShowMessage("\\n<Pochi (Affection:\\V[3060])>I eat lots of meat bones!")
  ShowMessageFace("mino_fc1",0,0,2,9)
  ShowMessage("\\n<Mina (Affection:\\V[3141])>Follow up the meat with milk! Drink plenty of the minotaur's signature milk!")
  JumpToLabel("メニュー")
  DefineLabel("142")
  ShowMessageFace("bander_fc1",0,0,2,10)
  ShowMessage("\\n<Banachi (Affection:\\V[3142])>Cow Girl... Shall we have a strength contest?")
  ShowMessageFace("mino_fc1",0,0,2,11)
  ShowMessage("\\n<Mina (Affection:\\V[3141])>Yeah! Name the place! Let's go!!")
  ShowMessageFace("sonia_fc2",5,0,2,12)
  ShowMessage("\\n<Sonya>Hey! Cut that out! If you two get violent you could destroy a wall!")
  ShowMessageFace("mino_fc1",2,0,2,13)
  ShowMessage("\\n<Mina (Affection:\\V[3141])>...Sonya is the strongest.")
  JumpToLabel("メニュー")
  DefineLabel("164")
  ShowMessageFace("kooni_fc1",0,0,2,14)
  ShowMessage("\\n<Shizuku (Affection:\\V[3164])>Wow! Amazing muscles! I want to be like that too!")
  ShowMessageFace("mino_fc1",0,0,2,15)
  ShowMessage("\\n<Mina (Affection:\\V[3141])>Then eat beef bowl! Beef bowl!")
  ShowMessageFace("kooni_fc1",2,0,2,16)
  ShowMessage("\\n<Shizuku (Affection:\\V[3164])>But Mina you are a cow monster... Is beef bowl really okay?")
  ShowMessageFace("mino_fc1",0,0,2,17)
  ShowMessage("\\n<Mina (Affection:\\V[3141])>It's fine, don't worry about it, don't get bent out of shape! Now drink some milk!")
  ShowMessageFace("kooni_fc1",2,0,2,18)
  ShowMessage("\\n<Shizuku (Affection:\\V[3164])>Is it really okay?")
  JumpToLabel("メニュー")
  DefineLabel("メニュー")
  StartLoop()
   355("unlimited_choices(11, [\"Give presents\",")
   655("\"Add to party\",")
   655("\"View present list\",\"Request\",")
   655("\"Never mind\"])")
   If(1,11,0,0,0)
    355("present_start(141)")
    0()
   EndIf()
   If(1,11,0,1,0)
    PictureClear(5)
    355("move_actor_ex(141)")
    EndEventProcessing()
    0()
   EndIf()
   If(1,11,0,2,0)
    ShowMessageFace("",0,0,2,19)
    ShowMessage("Affection   10:\\iw[371]")
    ShowMessage("Affection  100:\\ia[1016]")
    ShowMessage("Affection  500:\\ia[1306]")
    ShowMessage("Affection 2000:\\ia[1121]")
    0()
   EndIf()
   If(1,11,0,3,0)
    PictureClear(5)
    ShowMessageFace("",0,0,2,20)
    ShowMessage("Ask her for what? (Affection:\\V[3141])")
    ShowChoices(strings("Busty Paizuri(Affection:10)","Never mind"),2)
    IfPlayerPicksChoice(0,null)
     If(1,3141,0,10,1)
      355("call_novel_scene(4501)")
      EndEventProcessing()
      0()
     Else()
      ShowMessageFace("mino_fc1",2,0,2,21)
      ShowMessage("\\n<Mina (Affection:\\V[3141])>Right now, the milk coming out is bad.")
      0()
     EndIf()
     0()
    IfPlayerPicksChoice(1,null)
     0()
    404()
    0()
   EndIf()
   If(1,11,0,4,1)
    PictureClear(5)
    EndEventProcessing()
    0()
   EndIf()
   0()
  EndLoop()
  0()
 PAGE   2
  // condition: party contains actor #141
  0()



EVENT   42
 PAGE   1
  // condition: switch 1113 is ON
  PictureDisplay(5,"80_lamia_st01",0,0,0,0,100,100,0,0)
  PictureMove(5,null,0,0,0,0,100,100,255,0,30,true)
  If(1,3113,0,10,1)
   If(1,4113,0,0,0)
    ChangeVariable(4113,4113,0,0,1)
    ShowMessageFace("lamia_fc1",0,0,2,1)
    ShowMessage("\\n<Anastasia (Affection:\\V[3113])>You have been awfully kind. Here, please accept this.")
    250(bytes(0x04,0x08,0x6f,0x3a,0x0c,0x52,0x50,0x47,0x3a,0x3a,0x53,0x45,0x08,0x3a,0x0a,0x40,0x6e,0x61,0x6d,0x65,0x49,0x22,0x0a,0x49,0x74,0x65,0x6d,0x31,0x06,0x3a,0x06,0x45,0x54,0x3a,0x0b,0x40,0x70,0x69,0x74,0x63,0x68,0x69,0x69,0x3a,0x0c,0x40,0x76,0x6f,0x6c,0x75,0x6d,0x65,0x69,0x55))
    ChangeInventoryWeapon(149,0,0,1,false)
    0()
   EndIf()
   0()
  EndIf()
  If(1,3113,0,100,1)
   If(1,4113,0,1,0)
    ChangeVariable(4113,4113,0,0,2)
    ShowMessageFace("lamia_fc1",0,0,2,2)
    ShowMessage("\\n<Anastasia (Affection:\\V[3113])>You have been awfully kind. Here, please accept this.")
    250(bytes(0x04,0x08,0x6f,0x3a,0x0c,0x52,0x50,0x47,0x3a,0x3a,0x53,0x45,0x08,0x3a,0x0a,0x40,0x6e,0x61,0x6d,0x65,0x49,0x22,0x0a,0x49,0x74,0x65,0x6d,0x31,0x06,0x3a,0x06,0x45,0x54,0x3a,0x0b,0x40,0x70,0x69,0x74,0x63,0x68,0x69,0x69,0x3a,0x0c,0x40,0x76,0x6f,0x6c,0x75,0x6d,0x65,0x69,0x55))
    ChangeInventoryArmor(1145,0,0,1,false)
    0()
   EndIf()
   0()
  EndIf()
  If(1,3113,0,500,1)
   If(1,4113,0,2,0)
    ChangeVariable(4113,4113,0,0,3)
    ShowMessageFace("lamia_fc1",0,0,2,3)
    ShowMessage("\\n<Anastasia (Affection:\\V[3113])>You have been awfully kind. Here, please accept this.")
    250(bytes(0x04,0x08,0x6f,0x3a,0x0c,0x52,0x50,0x47,0x3a,0x3a,0x53,0x45,0x08,0x3a,0x0a,0x40,0x6e,0x61,0x6d,0x65,0x49,0x22,0x0a,0x49,0x74,0x65,0x6d,0x31,0x06,0x3a,0x06,0x45,0x54,0x3a,0x0b,0x40,0x70,0x69,0x74,0x63,0x68,0x69,0x69,0x3a,0x0c,0x40,0x76,0x6f,0x6c,0x75,0x6d,0x65,0x69,0x55))
    ChangeInventoryArmor(1333,0,0,1,false)
    0()
   EndIf()
   0()
  EndIf()
  If(1,3113,0,2000,1)
   If(1,4113,0,3,0)
    ChangeVariable(4113,4113,0,0,4)
    ShowMessageFace("lamia_fc1",0,0,2,4)
    ShowMessage("\\n<Anastasia (Affection:\\V[3113])>You have been awfully kind. Here, please accept this.")
    250(bytes(0x04,0x08,0x6f,0x3a,0x0c,0x52,0x50,0x47,0x3a,0x3a,0x53,0x45,0x08,0x3a,0x0a,0x40,0x6e,0x61,0x6d,0x65,0x49,0x22,0x0a,0x49,0x74,0x65,0x6d,0x31,0x06,0x3a,0x06,0x45,0x54,0x3a,0x0b,0x40,0x70,0x69,0x74,0x63,0x68,0x69,0x69,0x3a,0x0c,0x40,0x76,0x6f,0x6c,0x75,0x6d,0x65,0x69,0x55))
    ChangeInventoryArmor(1467,0,0,1,false)
    0()
   EndIf()
   0()
  EndIf()
  355("actor_label_jump")
  ShowMessageFace("lamia_fc1",0,0,2,5)
  ShowMessage("\\n<Anastasia (Affection:\\V[3113])>I have yet to stuff myself enough to prepare for hibernation. May I eat you as well?　...No good?")
  JumpToLabel("メニュー")
  DefineLabel("55")
  ShowMessageFace("lamia_fc1",2,0,2,6)
  ShowMessage("\\n<Anastasia (Affection:\\V[3113])>Slug?! I'm not good with slugs...")
  ShowMessageFace("name_fc1",3,0,2,7)
  ShowMessage("\\n<Melk (Affection:\\V[3055])>Mufufu...")
  ShowMessageFace("lamia_fc1",2,0,2,8)
  ShowMessage("\\n<Anastasia (Affection:\\V[3113])>Hyaa! Stay away!")
  ShowMessageFace("name_fc1",3,0,2,9)
  ShowMessage("\\n<Melk (Affection:\\V[3055])>Slimy slimy...")
  ShowMessageFace("lamia_fc1",2,0,2,10)
  ShowMessage("\\n<Anastasia (Affection:\\V[3113])>Stay away! Hyaaaa!")
  ShowMessageFace("sonia_fc2",5,0,2,11)
  ShowMessage("\\n<Sonya>Hey! Stop picking on her!")
  JumpToLabel("メニュー")
  DefineLabel("64")
  ShowMessageFace("pramia_fc1",0,0,2,12)
  ShowMessage("\\n<Teeny (Affection:\\V[3064])>Hey, it's big sis lamia! I wonder if I'll become a respectable lamia?")
  ShowMessageFace("lamia_fc1",0,0,2,13)
  ShowMessage("\\n<Anastasia (Affection:\\V[3113])>Of course you will. Just be sure to get plenty of hibernation and your chest will get bigger too.")
  ShowMessageFace("pramia_fc1",1,0,2,14)
  ShowMessage("\\n<Teeny (Affection:\\V[3064])>I'm going to hibernate right now! In fact, I'll bury myself for a few years!")
  ShowMessageFace("lamia_fc1",2,0,2,15)
  ShowMessage("\\n<Anastasia (Affection:\\V[3113])>You're not a cicada...")
  JumpToLabel("メニュー")
  DefineLabel("175")
  ShowMessageFace("lamia_fc1",2,0,2,16)
  ShowMessage("\\n<Anastasia (Affection:\\V[3113])>A Scylla, huh? Your feet wriggle, it's creepy.")
  ShowMessageFace("d_scylla_fc1",2,0,2,17)
  ShowMessage("\\n<Deiji (Affection:\\V[3175])>Lamia are creepy too. Your tails wriggle.")
  JumpToLabel("メニュー")
  DefineLabel("540")
  ShowMessageFace("amira_fc1",0,0,2,18)
  ShowMessage("\\n<Amira (Affection:\\V[3540])>Come on, just flip upside down.")
  ShowMessageFace("lamia_fc1",2,0,2,19)
  ShowMessage("\\n<Anastasia (Affection:\\V[3113])>No.")
  JumpToLabel("メニュー")
  DefineLabel("メニュー")
  StartLoop()
   355("unlimited_choices(11, [\"Give presents\",")
   655("\"Add to party\",")
   655("\"View present list\",\"Request\",")
   655("\"Never mind\"])")
   If(1,11,0,0,0)
    355("present_start(113)")
    0()
   EndIf()
   If(1,11,0,1,0)
    PictureClear(5)
    355("move_actor_ex(113)")
    EndEventProcessing()
    0()
   EndIf()
   If(1,11,0,2,0)
    ShowMessageFace("",0,0,2,20)
    ShowMessage("Affection   10:\\iw[149]")
    ShowMessage("Affection  100:\\ia[1145]")
    ShowMessage("Affection  500:\\ia[1333]")
    ShowMessage("Affection 2000:\\ia[1467]")
    0()
   EndIf()
   If(1,11,0,3,0)
    PictureClear(5)
    ShowMessageFace("",0,0,2,21)
    ShowMessage("Ask her for what? (Affection:\\V[3113])")
    ShowChoices(strings("Swallow Whole(Affection:10)","Coiled Blowjob(Affection:50)","Lamia Vagina(Affection:100)","Never mind"),4)
    IfPlayerPicksChoice(0,null)
     If(1,3113,0,10,1)
      355("call_novel_scene(4356)")
      EndEventProcessing()
      0()
     Else()
      ShowMessageFace("lamia_fc1",2,0,2,22)
      ShowMessage("\\n<Anastasia (Affection:\\V[3113])>I'm preparing to hibernate. Maybe next time.")
      0()
     EndIf()
     0()
    IfPlayerPicksChoice(1,null)
     If(1,3113,0,50,1)
      355("call_novel_scene(4357)")
      EndEventProcessing()
      0()
     Else()
      ShowMessageFace("lamia_fc1",2,0,2,23)
      ShowMessage("\\n<Anastasia (Affection:\\V[3113])>I'm preparing to hibernate. Maybe next time.")
      0()
     EndIf()
     0()
    IfPlayerPicksChoice(2,null)
     If(1,3113,0,100,1)
      355("call_novel_scene(4358)")
      EndEventProcessing()
      0()
     Else()
      ShowMessageFace("lamia_fc1",2,0,2,24)
      ShowMessage("\\n<Anastasia (Affection:\\V[3113])>I'm preparing to hibernate. Maybe next time.")
      0()
     EndIf()
     0()
    IfPlayerPicksChoice(3,null)
     0()
    404()
    0()
   EndIf()
   If(1,11,0,4,1)
    PictureClear(5)
    EndEventProcessing()
    0()
   EndIf()
   0()
  EndLoop()
  0()
 PAGE   2
  // condition: party contains actor #113
  0()



EVENT   37
 PAGE   1
  // condition: switch 1161 is ON
  PictureDisplay(5,"80_ustrel_st01",0,0,0,0,100,100,0,0)
  PictureMove(5,null,0,0,0,0,100,100,255,0,30,true)
  If(1,3161,0,10,1)
   If(1,4161,0,0,0)
    ChangeVariable(4161,4161,0,0,1)
    ShowMessageFace("ustrel_fc1",0,0,2,1)
    ShowMessage("\\n<Lemon (Affection:\\V[3161])>Kindly take this present... Let's continue to get along in the future.")
    250(bytes(0x04,0x08,0x6f,0x3a,0x0c,0x52,0x50,0x47,0x3a,0x3a,0x53,0x45,0x08,0x3a,0x0a,0x40,0x6e,0x61,0x6d,0x65,0x49,0x22,0x0a,0x49,0x74,0x65,0x6d,0x31,0x06,0x3a,0x06,0x45,0x54,0x3a,0x0b,0x40,0x70,0x69,0x74,0x63,0x68,0x69,0x69,0x3a,0x0c,0x40,0x76,0x6f,0x6c,0x75,0x6d,0x65,0x69,0x55))
    ChangeInventory_Item(2,0,0,1)
    0()
   EndIf()
   0()
  EndIf()
  If(1,3161,0,100,1)
   If(1,4161,0,1,0)
    ChangeVariable(4161,4161,0,0,2)
    ShowMessageFace("ustrel_fc1",0,0,2,2)
    ShowMessage("\\n<Lemon (Affection:\\V[3161])>Kindly take this present... Let's continue to get along in the future.")
    250(bytes(0x04,0x08,0x6f,0x3a,0x0c,0x52,0x50,0x47,0x3a,0x3a,0x53,0x45,0x08,0x3a,0x0a,0x40,0x6e,0x61,0x6d,0x65,0x49,0x22,0x0a,0x49,0x74,0x65,0x6d,0x31,0x06,0x3a,0x06,0x45,0x54,0x3a,0x0b,0x40,0x70,0x69,0x74,0x63,0x68,0x69,0x69,0x3a,0x0c,0x40,0x76,0x6f,0x6c,0x75,0x6d,0x65,0x69,0x55))
    ChangeInventoryArmor(1081,0,0,1,false)
    0()
   EndIf()
   0()
  EndIf()
  If(1,3161,0,500,1)
   If(1,4161,0,2,0)
    ChangeVariable(4161,4161,0,0,3)
    ShowMessageFace("ustrel_fc1",0,0,2,3)
    ShowMessage("\\n<Lemon (Affection:\\V[3161])>Kindly take this present... Let's continue to get along in the future.")
    250(bytes(0x04,0x08,0x6f,0x3a,0x0c,0x52,0x50,0x47,0x3a,0x3a,0x53,0x45,0x08,0x3a,0x0a,0x40,0x6e,0x61,0x6d,0x65,0x49,0x22,0x0a,0x49,0x74,0x65,0x6d,0x31,0x06,0x3a,0x06,0x45,0x54,0x3a,0x0b,0x40,0x70,0x69,0x74,0x63,0x68,0x69,0x69,0x3a,0x0c,0x40,0x76,0x6f,0x6c,0x75,0x6d,0x65,0x69,0x55))
    ChangeInventoryArmor(1046,0,0,1,false)
    0()
   EndIf()
   0()
  EndIf()
  If(1,3161,0,2000,1)
   If(1,4161,0,3,0)
    ChangeVariable(4161,4161,0,0,4)
    ShowMessageFace("ustrel_fc1",0,0,2,4)
    ShowMessage("\\n<Lemon (Affection:\\V[3161])>Kindly take this present... Let's continue to get along in the future.")
    250(bytes(0x04,0x08,0x6f,0x3a,0x0c,0x52,0x50,0x47,0x3a,0x3a,0x53,0x45,0x08,0x3a,0x0a,0x40,0x6e,0x61,0x6d,0x65,0x49,0x22,0x0a,0x49,0x74,0x65,0x6d,0x31,0x06,0x3a,0x06,0x45,0x54,0x3a,0x0b,0x40,0x70,0x69,0x74,0x63,0x68,0x69,0x69,0x3a,0x0c,0x40,0x76,0x6f,0x6c,0x75,0x6d,0x65,0x69,0x55))
    ChangeInventoryArmor(1467,0,0,1,false)
    0()
   EndIf()
   0()
  EndIf()
  355("actor_label_jump")
  ShowMessageFace("ustrel_fc1",0,0,2,5)
  ShowMessage("\\n<Lemon (Affection:\\V[3161])>I'll handle the cooking. ♪ ...But I could use some more help.")
  JumpToLabel("メニュー")
  DefineLabel("5")
  ShowMessageFace("alice_fc5",1,0,2,6)
  ShowMessage("\\n<Alice (Affection:\\V[3005])>I heard your cooking is pretty good. This is your chance to dedicate a special dish to the Monster Lord.")
  ShowMessageFace("ustrel_fc1",0,0,2,7)
  ShowMessage("\\n<Lemon (Affection:\\V[3161])>How about paella?")
  ShowMessageFace("alice_fc5",1,0,2,8)
  ShowMessage("\\n<Alice (Affection:\\V[3005])>Ohh, excellent! What ingredients are you using?")
  ShowMessageFace("ustrel_fc1",0,0,2,9)
  ShowMessage("\\n<Lemon (Affection:\\V[3161])>That is... umm...")
  ShowMessageFace("alice_fc5",5,0,2,10)
  ShowMessage("\\n<Alice (Affection:\\V[3005])>Wait, did I just see you glancing at your lower body?")
  JumpToLabel("メニュー")
  DefineLabel("64")
  ShowMessageFace("pramia_fc1",0,0,2,11)
  ShowMessage("\\n<Teeny (Affection:\\V[3064])>I can help with the cooking too!")
  ShowMessageFace("ustrel_fc1",0,0,2,12)
  ShowMessage("\\n<Lemon (Affection:\\V[3161])>Oh my, thank you. That's a big help.")
  ShowMessageFace("pramia_fc1",0,0,2,13)
  ShowMessage("\\n<Teeny (Affection:\\V[3064])>I need lots of practice so I can become a fine hostess and maid. ♪")
  JumpToLabel("メニュー")
  DefineLabel("144")
  ShowMessageFace("saboresu_fc1",0,0,2,14)
  ShowMessage("\\n<Sunny (Affection:\\V[3144])>You are also a subspecies of Scylla?")
  ShowMessageFace("ustrel_fc1",0,0,2,15)
  ShowMessage("\\n<Lemon (Affection:\\V[3161])>Yeah, I am tentatively a Scylla. The children on my lower body are not purely tentacles but...")
  ShowMessageFace("saboresu_fc1",0,0,2,16)
  ShowMessage("\\n<Sunny (Affection:\\V[3144])>We both have it pretty rough, huh? Our lower children will randomly lash out.")
  ShowMessageFace("ustrel_fc1",0,0,2,17)
  ShowMessage("\\n<Lemon (Affection:\\V[3161])>Those are terrible times, I think I'm about to be eaten. It's really very strange.")
  JumpToLabel("メニュー")
  DefineLabel("154")
  ShowMessageFace("wani_fc1",0,0,2,18)
  ShowMessage("\\n<Gaa (Affection:\\V[3154])>Gaa...")
  ShowMessageFace("ustrel_fc1",0,0,2,19)
  ShowMessage("\\n<Lemon (Affection:\\V[3161])>Oh? You also have a mouth in your lower body?")
  ShowMessageFace("",0,0,2,20)
  ShowMessage("The lower mouths of the Crocodile Girl and the Ustrel began to fight each other!")
  ShowMessageFace("wani_fc1",2,0,2,21)
  ShowMessage("\\n<Gaa (Affection:\\V[3154])>Ah, lower mouth... Stop going on a rampage.")
  ShowMessageFace("ustrel_fc1",2,0,2,22)
  ShowMessage("\\n<Lemon (Affection:\\V[3161])>Hey! Please calm down! I'm sorry about this.")
  ShowMessageFace("",0,0,2,23)
  ShowMessage("Both of their lower mouths are fighting.")
  JumpToLabel("メニュー")
  DefineLabel("175")
  ShowMessageFace("d_scylla_fc1",0,0,2,24)
  ShowMessage("\\n<Deiji (Affection:\\V[3175])>You seem to be a strange Scylla. Well, I can't exactly say that about others.")
  ShowMessageFace("ustrel_fc1",0,0,2,25)
  ShowMessage("\\n<Lemon (Affection:\\V[3161])>So you are a Scylla adapted for living in the desert? My body was changed through the power of magic.")
  ShowMessageFace("d_scylla_fc1",0,0,2,26)
  ShowMessage("\\n<Deiji (Affection:\\V[3175])>The majority of octopus types are purely sea wolves. But I think we have also become quite versatile.")
  JumpToLabel("メニュー")
  DefineLabel("メニュー")
  StartLoop()
   355("unlimited_choices(11, [\"Give presents\",")
   655("\"Add to party\",")
   655("\"View present list\",\"Request\",")
   655("\"Never mind\"])")
   If(1,11,0,0,0)
    355("present_start(161)")
    0()
   EndIf()
   If(1,11,0,1,0)
    PictureClear(5)
    355("move_actor_ex(161)")
    EndEventProcessing()
    0()
   EndIf()
   If(1,11,0,2,0)
    ShowMessageFace("",0,0,2,27)
    ShowMessage("Affection   10:\\iw[2]")
    ShowMessage("Affection  100:\\ia[1081]")
    ShowMessage("Affection  500:\\ia[1046]")
    ShowMessage("Affection 2000:\\ia[1467]")
    0()
   EndIf()
   If(1,11,0,3,0)
    PictureClear(5)
    ShowMessageFace("",0,0,2,28)
    ShowMessage("Ask her for what? (Affection:\\V[3161])")
    ShowChoices(strings("Semen Squeezing Hole(Affection:10)","Semen Squeezing Hole(Affection:100)","Never mind"),3)
    IfPlayerPicksChoice(0,null)
     If(1,3161,0,10,1)
      355("call_novel_scene(4606)")
      EndEventProcessing()
      0()
     Else()
      ShowMessageFace("ustrel_fc1",0,0,2,29)
      ShowMessage("\\n<Lemon (Affection:\\V[3161])>You and I don't have that strong of a relationship yet.")
      0()
     EndIf()
     0()
    IfPlayerPicksChoice(1,null)
     If(1,3161,0,100,1)
      355("call_novel_scene(4607)")
      EndEventProcessing()
      0()
     Else()
      ShowMessageFace("ustrel_fc1",0,0,2,30)
      ShowMessage("\\n<Lemon (Affection:\\V[3161])>You and I don't have that strong of a relationship yet.")
      0()
     EndIf()
     0()
    IfPlayerPicksChoice(2,null)
     0()
    404()
    0()
   EndIf()
   If(1,11,0,4,1)
    PictureClear(5)
    EndEventProcessing()
    0()
   EndIf()
   0()
  EndLoop()
  0()
 PAGE   2
  // condition: party contains actor #161
  0()



EVENT   38
 PAGE   1
  // condition: switch 1143 is ON
  PictureDisplay(5,"80_eva_st01",0,0,0,0,100,100,0,0)
  PictureMove(5,null,0,0,0,0,100,100,255,0,30,true)
  If(1,3143,0,10,1)
   If(1,4143,0,0,0)
    ChangeVariable(4143,4143,0,0,1)
    ShowMessageFace("eva_fc1",2,0,2,1)
    ShowMessage("\\n<Eva (Affection:\\V[3143])>Hmph, please take this... You don't really have to be concerned, I just happened to find it buried in a field.")
    250(bytes(0x04,0x08,0x6f,0x3a,0x0c,0x52,0x50,0x47,0x3a,0x3a,0x53,0x45,0x08,0x3a,0x0a,0x40,0x6e,0x61,0x6d,0x65,0x49,0x22,0x0a,0x49,0x74,0x65,0x6d,0x31,0x06,0x3a,0x06,0x45,0x54,0x3a,0x0b,0x40,0x70,0x69,0x74,0x63,0x68,0x69,0x69,0x3a,0x0c,0x40,0x76,0x6f,0x6c,0x75,0x6d,0x65,0x69,0x55))
    ChangeInventoryWeapon(520,0,0,1,false)
    0()
   EndIf()
   0()
  EndIf()
  If(1,3143,0,100,1)
   If(1,4143,0,1,0)
    ChangeVariable(4143,4143,0,0,2)
    ShowMessageFace("eva_fc1",2,0,2,2)
    ShowMessage("\\n<Eva (Affection:\\V[3143])>Hmph, please take this... You don't really have to be concerned, I just happened to find it buried in a field.")
    250(bytes(0x04,0x08,0x6f,0x3a,0x0c,0x52,0x50,0x47,0x3a,0x3a,0x53,0x45,0x08,0x3a,0x0a,0x40,0x6e,0x61,0x6d,0x65,0x49,0x22,0x0a,0x49,0x74,0x65,0x6d,0x31,0x06,0x3a,0x06,0x45,0x54,0x3a,0x0b,0x40,0x70,0x69,0x74,0x63,0x68,0x69,0x69,0x3a,0x0c,0x40,0x76,0x6f,0x6c,0x75,0x6d,0x65,0x69,0x55))
    ChangeInventoryArmor(1061,0,0,1,false)
    0()
   EndIf()
   0()
  EndIf()
  If(1,3143,0,500,1)
   If(1,4143,0,2,0)
    ChangeVariable(4143,4143,0,0,3)
    ShowMessageFace("eva_fc1",2,0,2,3)
    ShowMessage("\\n<Eva (Affection:\\V[3143])>Hmph, please take this... You don't really have to be concerned, I just happened to find it buried in a field.")
    250(bytes(0x04,0x08,0x6f,0x3a,0x0c,0x52,0x50,0x47,0x3a,0x3a,0x53,0x45,0x08,0x3a,0x0a,0x40,0x6e,0x61,0x6d,0x65,0x49,0x22,0x0a,0x49,0x74,0x65,0x6d,0x31,0x06,0x3a,0x06,0x45,0x54,0x3a,0x0b,0x40,0x70,0x69,0x74,0x63,0x68,0x69,0x69,0x3a,0x0c,0x40,0x76,0x6f,0x6c,0x75,0x6d,0x65,0x69,0x55))
    ChangeInventoryArmor(1252,0,0,1,false)
    0()
   EndIf()
   0()
  EndIf()
  If(1,3143,0,2000,1)
   If(1,4143,0,3,0)
    ChangeVariable(4143,4143,0,0,4)
    ShowMessageFace("eva_fc1",2,0,2,4)
    ShowMessage("\\n<Eva (Affection:\\V[3143])>Hmph, please take this... You don't really have to be concerned, I just happened to find it buried in a field.")
    250(bytes(0x04,0x08,0x6f,0x3a,0x0c,0x52,0x50,0x47,0x3a,0x3a,0x53,0x45,0x08,0x3a,0x0a,0x40,0x6e,0x61,0x6d,0x65,0x49,0x22,0x0a,0x49,0x74,0x65,0x6d,0x31,0x06,0x3a,0x06,0x45,0x54,0x3a,0x0b,0x40,0x70,0x69,0x74,0x63,0x68,0x69,0x69,0x3a,0x0c,0x40,0x76,0x6f,0x6c,0x75,0x6d,0x65,0x69,0x55))
    ChangeInventoryArmor(1146,0,0,1,false)
    0()
   EndIf()
   0()
  EndIf()
  355("actor_label_jump")
  ShowMessageFace("eva_fc1",0,0,2,5)
  ShowMessage("\\n<Eva (Affection:\\V[3143])>My job diversity is pretty awesome. Since I have been exiled for so long, I tried my hand at many different ones...")
  ShowMessageFace("eva_fc1",2,0,2,6)
  ShowMessage("\\n<Eva (Affection:\\V[3143])>That's not saying that I half-assed any of them!")
  JumpToLabel("メニュー")
  DefineLabel("61")
  ShowMessageFace("mimizu_fc1",1,0,2,7)
  ShowMessage("\\n<Mimi (Affection:\\V[3061])>Let's go steal from the fields, Eva!")
  ShowMessageFace("eva_fc1",0,0,2,8)
  ShowMessage("\\n<Eva (Affection:\\V[3143])>Yes, let's go! Mimi!")
  ShowMessageFace("sonia_fc3",2,0,2,9)
  ShowMessage("\\n<Sonya>Why are you two getting along so well?!")
  JumpToLabel("メニュー")
  DefineLabel("88")
  ShowMessageFace("eva_fc1",0,0,2,10)
  ShowMessage("\\n<Eva (Affection:\\V[3143])>Ohh, a delicious-looking pumpkin.")
  ShowMessageFace("jack_fc1",0,0,2,11)
  ShowMessage("\\n<Pumpkin (Affection:\\V[3088])>Don't eat me...")
  ShowMessageFace("eva_fc1",0,0,2,12)
  ShowMessage("\\n<Eva (Affection:\\V[3143])>I can have a little right? Just a bite.")
  ShowMessageFace("jack_fc1",0,0,2,13)
  ShowMessage("\\n<Pumpkin (Affection:\\V[3088])>Stop...")
  JumpToLabel("メニュー")
  DefineLabel("108")
  ShowMessageFace("eva_fc1",2,0,2,14)
  ShowMessage("\\n<Eva (Affection:\\V[3143])>Hey, are you hiding a pearl in your shell?")
  ShowMessageFace("kai_fc1",0,0,2,15)
  ShowMessage("\\n<Shelly (Affection:\\V[3108])>No. I am not a pearl oyster.")
  ShowMessageFace("eva_fc1",2,0,2,16)
  ShowMessage("\\n<Eva (Affection:\\V[3143])>Shame... Let's say, for the sake of argument, I needed ingredients for miso soup... ")
  ShowMessageFace("kai_fc1",2,0,2,17)
  ShowMessage("\\n<Shelly (Affection:\\V[3108])>Is this really 'for the sake of argument'?")
  JumpToLabel("メニュー")
  DefineLabel("123")
  ShowMessageFace("eva_fc1",2,0,2,18)
  ShowMessage("\\n<Eva (Affection:\\V[3143])>Why are you a succubus with the peculiarity of being a sister? Is it profitable?")
  ShowMessageFace("sisccubus_fc1",0,0,2,19)
  ShowMessage("\\n<Christie (Affection:\\V[3123])>Of course it is profitable. With just donations, getting three meals and a bed for the night is easy.")
  ShowMessageFace("eva_fc1",0,0,2,20)
  ShowMessage("\\n<Eva (Affection:\\V[3143])>Oookaay! I am a sister starting today! God, please give me food every day.")
  ShowMessageFace("sisccubus_fc1",0,0,2,21)
  ShowMessage("\\n<Christie (Affection:\\V[3123])>（That's all it took to get her to believe?）")
  JumpToLabel("メニュー")
  DefineLabel("134")
  ShowMessageFace("eva_fc1",2,0,2,22)
  ShowMessage("\\n<Eva (Affection:\\V[3143])>Hey, is grave robbing profitable?")
  ShowMessageFace("chrom_fc2",0,0,2,23)
  ShowMessage("\\n<Chrome (Affection:\\V[3134])>I did make a little money from it before...  Now I am forbidden to create zombies from the bodies.")
  ShowMessageFace("eva_fc1",2,0,2,24)
  ShowMessage("\\n<Eva (Affection:\\V[3143])>So you cannot earn leisure money from it after all.")
  ShowMessageFace("chrom_fc2",5,0,2,25)
  ShowMessage("\\n<Chrome (Affection:\\V[3134])>Grave robbing requires a horrendous amount of heavy lifting.")
  JumpToLabel("メニュー")
  DefineLabel("147")
  ShowMessageFace("eva_fc1",0,0,2,26)
  ShowMessage("\\n<Eva (Affection:\\V[3143])>Can I sell your cactus thorns? ♪")
  ShowMessageFace("saboten_fc1",2,0,2,27)
  ShowMessage("\\n<Casta (Affection:\\V[3147])>Ah, wait... Could you not pull out my thorns?")
  ShowMessageFace("eva_fc1",2,0,2,28)
  ShowMessage("\\n<Eva (Affection:\\V[3143])>Ouch! You moved, so I got pricked!")
  ShowMessageFace("saboten_fc1",2,0,2,29)
  ShowMessage("\\n<Casta (Affection:\\V[3147])>Sorry about that... Wait, what did I do wrong?")
  JumpToLabel("メニュー")
  DefineLabel("149")
  ShowMessageFace("lamp_fc1",0,0,2,30)
  ShowMessage("\\n<Jeannie (Affection:\\V[3149])>What is your wish?")
  ShowMessageFace("eva_fc1",1,0,2,31)
  ShowMessage("\\n<Eva (Affection:\\V[3143])>Money! 3 meals a day and a roof over my head for the rest of my life! After a snack!")
  ShowMessageFace("lamp_fc1",1,0,2,32)
  ShowMessage("\\n<Jeannie (Affection:\\V[3149])>Now, it shall be granted.")
  ShowMessageFace("eva_fc1",1,0,2,33)
  ShowMessage("\\n<Eva (Affection:\\V[3143])>Ahh, fantastic... Snacks... Money.")
  ShowMessageFace("",0,0,2,34)
  ShowMessage("Eva is seeing at a hallucination.")
  ShowMessageFace("lamp_fc1",0,0,2,35)
  ShowMessage("\\n<Jeannie (Affection:\\V[3149])>To be so honest about her desires, it's rather refreshing.")
  JumpToLabel("メニュー")
  DefineLabel("155")
  ShowMessageFace("eva_fc1",2,0,2,36)
  ShowMessage("\\n<Eva (Affection:\\V[3143])>Is singing and dancing profitable?")
  ShowMessageFace("saki_fc1",0,0,2,37)
  ShowMessage("\\n<Saki (Affection:\\V[3155])>Saki does not think it's that much money... But I also get gifts from the fans so I don't have any troubles in life.")
  ShowMessageFace("eva_fc1",0,0,2,38)
  ShowMessage("\\n<Eva (Affection:\\V[3143])>I shall become an idol! Hey, what kind of idol should I market myself as?")
  ShowMessageFace("saki_fc1",2,0,2,39)
  ShowMessage("\\n<Saki (Affection:\\V[3155])>Something like a crazy unfortunate one, or a poverty stricken one.")
  ShowMessageFace("eva_fc1",2,0,2,40)
  ShowMessage("\\n<Eva (Affection:\\V[3143])>That's not interesting.")
  JumpToLabel("メニュー")
  DefineLabel("156")
  ShowMessageFace("eva_fc1",2,0,2,41)
  ShowMessage("\\n<Eva (Affection:\\V[3143])>Wow! What a perverted look!")
  ShowMessageFace("d_fighter_fc1",3,0,2,42)
  ShowMessage("\\n<Regina (Affection:\\V[3156])>Y-You're pretty exposed too!")
  ShowMessageFace("eva_fc1",2,0,2,43)
  ShowMessage("\\n<Eva (Affection:\\V[3143])>Maybe you have no money?")
  ShowMessageFace("d_fighter_fc1",3,0,2,44)
  ShowMessage("\\n<Regina (Affection:\\V[3156])>Money is not a problem! This is a combat uniform passed down from generation to generation by my ancestors!")
  ShowMessageFace("eva_fc1",0,0,2,45)
  ShowMessage("\\n<Eva (Affection:\\V[3143])>It's ancestral... Why not sell it?")
  ShowMessageFace("d_fighter_fc1",0,0,2,46)
  ShowMessage("\\n<Regina (Affection:\\V[3156])>(This succubus moves at her own pace, huh?)")
  JumpToLabel("メニュー")
  DefineLabel("166")
  ShowMessageFace("narcubus_fc1",0,0,2,47)
  ShowMessage("\\n<Manako (Affection:\\V[3166])>Eva was healthy? You didn't starve?")
  ShowMessageFace("eva_fc1",2,0,2,48)
  ShowMessage("\\n<Eva (Affection:\\V[3143])>Of course I'm healthy! I didn't starve...")
  ShowMessageFace("narcubus_fc1",0,0,2,49)
  ShowMessage("\\n<Manako (Affection:\\V[3166])>Eva was doing honest work?")
  ShowMessageFace("eva_fc1",2,0,2,50)
  ShowMessage("\\n<Eva (Affection:\\V[3143])>I have not been working...")
  ShowMessageFace("narcubus_fc1",3,0,2,51)
  ShowMessage("\\n<Manako (Affection:\\V[3166])>So it's just as I thought... It's no good if you eat properly but don't do any work.")
  JumpToLabel("メニュー")
  DefineLabel("181")
  ShowMessageFace("eva_fc1",0,0,2,52)
  ShowMessage("\\n<Eva (Affection:\\V[3143])>This may be sudden, but how much could I sell you for?")
  ShowMessageFace("gaistvine_fc1",0,0,2,53)
  ShowMessage("\\n<Lisa (Affection:\\V[3181])>Don't sell me.")
  ShowMessageFace("eva_fc1",0,0,2,54)
  ShowMessage("\\n<Eva (Affection:\\V[3143])>We won't be able to put you in the exhibition if you don't have decent wrapping paper.")
  ShowMessageFace("gaistvine_fc1",0,0,2,55)
  ShowMessage("\\n<Lisa (Affection:\\V[3181])>So don't sell me.")
  JumpToLabel("メニュー")
  DefineLabel("557")
  ShowMessageFace("justice_fc1",0,0,2,56)
  ShowMessage("\\n<Jessica (Affection:\\V[3557])>The demon (Succubus) has appeared!")
  ShowMessageFace("eva_fc1",2,0,2,57)
  ShowMessage("\\n<Eva (Affection:\\V[3143])>That troublesome cosplay woman is in a place like this?! Doing such a thing at your age, aren't you ashamed?!")
  ShowMessageFace("justice_fc1",0,0,2,58)
  ShowMessage("\\n<Jessica (Affection:\\V[3557])>You must work hard for the people of the world!")
  ShowMessageFace("eva_fc1",2,0,2,59)
  ShowMessage("\\n<Eva (Affection:\\V[3143])>I don't want to hear that from you!")
  JumpToLabel("メニュー")
  DefineLabel("メニュー")
  StartLoop()
   355("unlimited_choices(11, [\"Give presents\",")
   655("\"Add to party\",")
   655("\"View present list\",\"Request\",")
   655("\"Never mind\"])")
   If(1,11,0,0,0)
    355("present_start(143)")
    0()
   EndIf()
   If(1,11,0,1,0)
    PictureClear(5)
    355("move_actor_ex(143)")
    EndEventProcessing()
    0()
   EndIf()
   If(1,11,0,2,0)
    ShowMessageFace("",0,0,2,60)
    ShowMessage("Affection   10:\\iw[520]")
    ShowMessage("Affection  100:\\ia[1061]")
    ShowMessage("Affection  500:\\ia[1146]")
    ShowMessage("Affection 2000:\\ia[1252]")
    0()
   EndIf()
   If(1,11,0,3,0)
    PictureClear(5)
    ShowMessageFace("",0,0,2,61)
    ShowMessage("Ask her for what? (Affection:\\V[3143])")
    355("unlimited_choices(12,")
    655(" [\"Energy Drain(Affection:10)\",")
    655("\"Succubus Paizuri(Affection:20)\",")
    655("\"Succubus Blowjob(Affection:30)\",")
    655("\"Succubus Armpit(Affection:40)\",")
    655("\"Succubus Footjob(Affection:50)\",")
    655("\"Succubus Face-sitting Milking(Affection:70)\",")
    655("\"Succubus Face-sitting Tail Sucking(Affection:80)\",")
    655("\"Succubus Vagina(Affection:100)\",")
    655("\"Never mind\"])")
    If(1,12,0,0,0)
     If(1,3143,0,10,1)
      355("call_novel_scene(4511)")
      EndEventProcessing()
      0()
     Else()
      ShowMessageFace("eva_fc1",1,0,2,62)
      ShowMessage("\\n<Eva (Affection:\\V[3143])>In that case, I want more tribute.")
      0()
     EndIf()
     0()
    EndIf()
    If(1,12,0,1,0)
     If(1,3143,0,20,1)
      355("call_novel_scene(4512)")
      EndEventProcessing()
      0()
     Else()
      ShowMessageFace("eva_fc1",1,0,2,63)
      ShowMessage("\\n<Eva (Affection:\\V[3143])>In that case, I want more tribute.")
      0()
     EndIf()
     0()
    EndIf()
    If(1,12,0,2,0)
     If(1,3143,0,30,1)
      355("call_novel_scene(4513)")
      EndEventProcessing()
      0()
     Else()
      ShowMessageFace("eva_fc1",1,0,2,64)
      ShowMessage("\\n<Eva (Affection:\\V[3143])>In that case, I want more tribute.")
      0()
     EndIf()
     0()
    EndIf()
    If(1,12,0,3,0)
     If(1,3143,0,40,1)
      355("call_novel_scene(4514)")
      EndEventProcessing()
      0()
     Else()
      ShowMessageFace("eva_fc1",1,0,2,65)
      ShowMessage("\\n<Eva (Affection:\\V[3143])>In that case, I want more tribute.")
      0()
     EndIf()
     0()
    EndIf()
    If(1,12,0,4,0)
     If(1,3143,0,50,1)
      355("call_novel_scene(4515)")
      EndEventProcessing()
      0()
     Else()
      ShowMessageFace("eva_fc1",1,0,2,66)
      ShowMessage("\\n<Eva (Affection:\\V[3143])>In that case, I want more tribute.")
      0()
     EndIf()
     0()
    EndIf()
    If(1,12,0,5,0)
     If(1,3143,0,70,1)
      355("call_novel_scene(4516)")
      EndEventProcessing()
      0()
     Else()
      ShowMessageFace("eva_fc1",1,0,2,67)
      ShowMessage("\\n<Eva (Affection:\\V[3143])>In that case, I want more tribute.")
      0()
     EndIf()
     0()
    EndIf()
    If(1,12,0,6,0)
     If(1,3143,0,80,1)
      355("call_novel_scene(4517)")
      EndEventProcessing()
      0()
     Else()
      ShowMessageFace("eva_fc1",1,0,2,68)
      ShowMessage("\\n<Eva (Affection:\\V[3143])>In that case, I want more tribute.")
      0()
     EndIf()
     0()
    EndIf()
    If(1,12,0,7,0)
     If(1,3143,0,100,1)
      355("call_novel_scene(4518)")
      EndEventProcessing()
      0()
     Else()
      ShowMessageFace("eva_fc1",1,0,2,69)
      ShowMessage("\\n<Eva (Affection:\\V[3143])>In that case, I want more tribute.")
      0()
     EndIf()
     0()
    EndIf()
    If(1,12,0,8,0)
     0()
    EndIf()
    0()
   EndIf()
   If(1,11,0,4,1)
    PictureClear(5)
    EndEventProcessing()
    0()
   EndIf()
   0()
  EndLoop()
  0()
 PAGE   2
  // condition: party contains actor #143
  0()
