
DisplayName "Administrator's Tower 1F"



EVENT   1
 PAGE   1
  ChangeSelfSwitch("A",0)
  ShowMessageFace("radio_fc1",0,0,2,1)
  ShowMessage("\\n<Radio>Previous Master's presence has disappeared... Adramelech has also vanished...")
  ShowMessageFace("ruka_fc1",0,0,2,2)
  ShowMessage("\\n<Luka>......")
  ShowMessageFace("ruka_fc1",0,0,2,3)
  ShowMessage("\\n<Luka>...Let's go!")
  If(4,134,0)
   ShowMessageFace("chrom_fc2",6,0,2,4)
   ShowMessage("\\n<Chrome>I'm... not crying...!")
   0()
  EndIf()
  0()
 PAGE   2
  // condition: self-switch A is ON
  0()



EVENT   2
 PAGE   1
  ShowMessageFace("radio_fc1",0,0,2,1)
  ShowMessage("\\n<Radio>...? A presence is approaching. This is...")
  241(bytes(0x04,0x08,0x6f,0x3a,0x0d,0x52,0x50,0x47,0x3a,0x3a,0x42,0x47,0x4d,0x08,0x3a,0x0a,0x40,0x6e,0x61,0x6d,0x65,0x49,0x22,0x0c,0x62,0x6f,0x73,0x73,0x30,0x2d,0x33,0x06,0x3a,0x06,0x45,0x54,0x3a,0x0c,0x40,0x76,0x6f,0x6c,0x75,0x6d,0x65,0x69,0x69,0x3a,0x0b,0x40,0x70,0x69,0x74,0x63,0x68,0x69,0x69))
  250(bytes(0x04,0x08,0x6f,0x3a,0x0c,0x52,0x50,0x47,0x3a,0x3a,0x53,0x45,0x08,0x3a,0x0a,0x40,0x6e,0x61,0x6d,0x65,0x49,0x22,0x0e,0x44,0x61,0x72,0x6b,0x6e,0x65,0x73,0x73,0x31,0x06,0x3a,0x06,0x45,0x54,0x3a,0x0b,0x40,0x70,0x69,0x74,0x63,0x68,0x69,0x69,0x3a,0x0c,0x40,0x76,0x6f,0x6c,0x75,0x6d,0x65,0x69,0x55))
  TeleportEvent(3,0,36,67,8)
  205(-1,bytes(0x04,0x08,0x6f,0x3a,0x13,0x52,0x50,0x47,0x3a,0x3a,0x4d,0x6f,0x76,0x65,0x52,0x6f,0x75,0x74,0x65,0x09,0x3a,0x0c,0x40,0x72,0x65,0x70,0x65,0x61,0x74,0x46,0x3a,0x0f,0x40,0x73,0x6b,0x69,0x70,0x70,0x61,0x62,0x6c,0x65,0x46,0x3a,0x0a,0x40,0x77,0x61,0x69,0x74,0x46,0x3a,0x0a,0x40,0x6c,0x69,0x73,0x74,0x5b,0x07,0x6f,0x3a,0x15,0x52,0x50,0x47,0x3a,0x3a,0x4d,0x6f,0x76,0x65,0x43,0x6f,0x6d,0x6d,0x61,0x6e,0x64,0x07,0x3a,0x0a,0x40,0x63,0x6f,0x64,0x65,0x69,0x15,0x3a,0x10,0x40,0x70,0x61,0x72,0x61,0x6d,0x65,0x74,0x65,0x72,0x73,0x5b,0x00,0x6f,0x3b,0x0a,0x07,0x3b,0x0b,0x69,0x00,0x3b,0x0c,0x5b,0x00))
  ShowSpeechBalloon(-1,1,true)
  Wait(15)
  PictureDisplay(5,"80_adramelek_st01",0,0,0,0,100,100,0,0)
  PictureMove(5,null,0,0,0,0,100,100,255,0,30,true)
  ShowMessageFace("adramelek_fc0",0,0,2,2)
  ShowMessage("\\n<Adramelech>Second-Class Prohibited Cross-World Contact... Erasing it immediately.")
  If(0,6,0)
   ShowMessageFace("sonia_fc3",7,0,2,3)
   ShowMessage("\\n<Sonya>No way... La Croix fought her with her life on the line, and yet...")
   0()
  Else()
   ShowMessageFace("ruka_fc1",0,0,2,4)
   ShowMessage("\\n<Luka>It can't be... La Croix fought her with her life on the line, and yet...")
   0()
  EndIf()
  ShowMessageFace("radio_fc1",0,0,2,5)
  ShowMessage("\\n<Radio>...Adramelech has approximately 10% of energy remaining... She has received great damage in previous combat...")
  If(0,4,0)
   ShowMessageFace("alice_fc6",1,0,2,6)
   ShowMessage("\\n<Alice>If she has only 10% of her strength left... Let's beat her right here!")
   0()
  EndIf()
  If(0,5,0)
   ShowMessageFace("iriasu_fc4",7,0,2,7)
   ShowMessage("\\n<Ilias>If only 10% of her strength remains... we can finish her off here and now!")
   0()
  EndIf()
  250(bytes(0x04,0x08,0x6f,0x3a,0x0c,0x52,0x50,0x47,0x3a,0x3a,0x53,0x45,0x08,0x3a,0x0a,0x40,0x6e,0x61,0x6d,0x65,0x49,0x22,0x0e,0x44,0x61,0x72,0x6b,0x6e,0x65,0x73,0x73,0x35,0x06,0x3a,0x06,0x45,0x54,0x3a,0x0b,0x40,0x70,0x69,0x74,0x63,0x68,0x69,0x69,0x3a,0x0c,0x40,0x76,0x6f,0x6c,0x75,0x6d,0x65,0x69,0x55))
  PictureDisplay(10,"sys_white",0,0,0,0,100,100,0,0)
  PictureMove(10,null,0,0,0,0,100,100,255,0,30,true)
  284("StarlitSky",false,false,0,0)
  PictureDisplay(5,"80_adramelek_st05",0,0,0,0,100,100,255,0)
  PictureMove(10,null,0,0,0,0,100,100,0,0,30,true)
  PictureClear(10)
  ShowMessageFace("",0,0,2,8)
  ShowMessage("Adramelech's enormous power turns the surroundings into chaos!")
  ShowMessageFace("adramelek_fc0",4,0,2,9)
  ShowMessage("\\n<Adramelech>Initiating erasure...")
  ShowMessageFace("ruka_fc1",0,0,2,10)
  ShowMessage("\\n<Luka>Ghh, to think this is just 10% of her power... But we can't lose no matter what...!")
  ShowMessageFace("",0,0,2,11)
  ShowMessage("We have been entrusted with this world's hope. The hope the people of this world left in exchange for their lives.")
  ShowMessageFace("ruka_fc1",0,0,2,12)
  ShowMessage("\\n<Luka>In order to bring this hope to our world... we absolutely cannot lose here!")
  PictureClear(5)
  ChangeVariable(1002,1002,0,0,19)
  SetBattleBGM(bytes(0x04,0x08,0x6f,0x3a,0x0d,0x52,0x50,0x47,0x3a,0x3a,0x42,0x47,0x4d,0x08,0x3a,0x0a,0x40,0x6e,0x61,0x6d,0x65,0x49,0x22,0x0e,0x62,0x6f,0x73,0x73,0x5f,0x61,0x64,0x72,0x61,0x06,0x3a,0x06,0x45,0x54,0x3a,0x0c,0x40,0x76,0x6f,0x6c,0x75,0x6d,0x65,0x69,0x69,0x3a,0x0b,0x40,0x70,0x69,0x74,0x63,0x68,0x69,0x69))
  ChangeSwitch(22,22,0)
  Battle(0,327,false,false)
  ChangeSwitch(22,22,1)
  SetBattleBGM(bytes(0x04,0x08,0x6f,0x3a,0x0d,0x52,0x50,0x47,0x3a,0x3a,0x42,0x47,0x4d,0x08,0x3a,0x0a,0x40,0x6e,0x61,0x6d,0x65,0x49,0x22,0x0b,0x62,0x61,0x74,0x74,0x6c,0x65,0x06,0x3a,0x06,0x45,0x54,0x3a,0x0c,0x40,0x76,0x6f,0x6c,0x75,0x6d,0x65,0x69,0x69,0x3a,0x0b,0x40,0x70,0x69,0x74,0x63,0x68,0x69,0x69))
  PictureDisplay(5,"80_adramelek_st14",0,0,0,0,100,100,255,0)
  ShowMessageFace("adramelek_fc1",6,0,2,13)
  ShowMessage("\\n<Adramelech>S-s-s... Second Crzss Proghhbt Cctt... Ccc... I-I-i... Erasure...")
  ShowMessageFace("adramelek_fc1",6,0,2,14)
  ShowMessage("\\n<Adramelech>So...a, d-d...r...")
  ChangeVariable(1032,1032,0,0,7)
  PictureMove(5,null,0,0,0,0,100,100,0,0,60,false)
  284("StarlitSky",false,false,0,0)
  ShowMessageFace("",0,0,2,15)
  ShowMessage("Adramelech has vanished...")
  If(0,4,0)
   ShowMessageFace("alice_fc5",2,0,2,16)
   ShowMessage("\\n<Alice>Come on, there's no time to dawdle! Quickly, let's escape from this world!")
   0()
  EndIf()
  If(0,5,0)
   ShowMessageFace("iriasu_fc4",7,0,2,17)
   ShowMessage("\\n<Ilias>There's no time to dawdle! Let's quickly escape this world!")
   0()
  EndIf()
  ShowMessageFace("ruka_fc1",0,0,2,18)
  ShowMessage("\\n<Luka>Yeah, let's go!")
  205(-1,bytes(0x04,0x08,0x6f,0x3a,0x13,0x52,0x50,0x47,0x3a,0x3a,0x4d,0x6f,0x76,0x65,0x52,0x6f,0x75,0x74,0x65,0x09,0x3a,0x0c,0x40,0x72,0x65,0x70,0x65,0x61,0x74,0x46,0x3a,0x0f,0x40,0x73,0x6b,0x69,0x70,0x70,0x61,0x62,0x6c,0x65,0x46,0x3a,0x0a,0x40,0x77,0x61,0x69,0x74,0x54,0x3a,0x0a,0x40,0x6c,0x69,0x73,0x74,0x5b,0x0a,0x6f,0x3a,0x15,0x52,0x50,0x47,0x3a,0x3a,0x4d,0x6f,0x76,0x65,0x43,0x6f,0x6d,0x6d,0x61,0x6e,0x64,0x07,0x3a,0x0a,0x40,0x63,0x6f,0x64,0x65,0x69,0x06,0x3a,0x10,0x40,0x70,0x61,0x72,0x61,0x6d,0x65,0x74,0x65,0x72,0x73,0x5b,0x00,0x6f,0x3b,0x0a,0x07,0x3b,0x0b,0x69,0x06,0x3b,0x0c,0x5b,0x00,0x6f,0x3b,0x0a,0x07,0x3b,0x0b,0x69,0x06,0x3b,0x0c,0x5b,0x00,0x6f,0x3b,0x0a,0x07,0x3b,0x0b,0x69,0x06,0x3b,0x0c,0x5b,0x00,0x6f,0x3b,0x0a,0x07,0x3b,0x0b,0x69,0x00,0x3b,0x0c,0x5b,0x00))
  221()
  242(2)
  Wait(180)
  TeleportPlayer(0,634,9,0,2,2)
  0()



EVENT   3
 PAGE   1
  0()
 PAGE   2
  // condition: variable 1032 >= 7
  0()
