# -*- encoding: utf-8 -*-
=begin
= 合成屋の設定

呼び出し方法は「スクリプト」から
call_synthesize(店ID)
です

=end

#==============================================================================
# ■ NWConst::Synthesize
#==============================================================================
module NWConst::Synthesize
  # レシピ一覧
  Recipes = {
    # レシピID
    1 => {
      :price => 17,
      :after => {:kind => :W, :id => 658},
      :befores => [
        # 種類, ID, 必要個数
        {:kind => :W, :id => 657, :num => 1},
        {:kind => :I, :id => 322, :num => 1},
      ],
    },
    3 => {
      :price => 12,
      :after => {:kind => :W, :id => 2},
      :befores => [
        # 種類, ID, 必要個数
        {:kind => :W, :id => 1, :num => 1},
        {:kind => :I, :id => 163, :num => 1},
      ],
    },
    4 => {
      :price => 12,
      :after => {:kind => :W, :id => 48},
      :befores => [
        # 種類, ID, 必要個数
        {:kind => :W, :id => 46, :num => 1},
        {:kind => :I, :id => 161, :num => 1},
      ],
    },
    5 => {
      :price => 15,
      :after => {:kind => :W, :id => 144},
      :befores => [
        # 種類, ID, 必要個数
        {:kind => :W, :id => 143, :num => 1},
        {:kind => :I, :id => 163, :num => 1},
      ],
    },
    6 => {
      :price => 18,
      :after => {:kind => :W, :id => 291},
      :befores => [
        # 種類, ID, 必要個数
        {:kind => :W, :id => 290, :num => 1},
        {:kind => :I, :id => 164, :num => 1},
      ],
    },
    7 => {
      :price => 15,
      :after => {:kind => :W, :id => 401},
      :befores => [
        # 種類, ID, 必要個数
        {:kind => :W, :id => 400, :num => 1},
        {:kind => :I, :id => 161, :num => 1},
      ],
    },
    8 => {
      :price => 18,
      :after => {:kind => :W, :id => 510},
      :befores => [
        # 種類, ID, 必要個数
        {:kind => :W, :id => 509, :num => 1},
        {:kind => :I, :id => 162, :num => 1},
      ],
    },
    9 => {
      :price => 18,
      :after => {:kind => :W, :id => 590},
      :befores => [
        # 種類, ID, 必要個数
        {:kind => :W, :id => 589, :num => 1},
        {:kind => :I, :id => 162, :num => 1},
      ],
    },
    10 => {
      :price => 20,
      :after => {:kind => :W, :id => 659},
      :befores => [
        # 種類, ID, 必要個数
        {:kind => :W, :id => 658, :num => 1},
        {:kind => :I, :id => 160, :num => 1},
      ],
    },
    11 => {
      :price => 14,
      :after => {:kind => :A, :id => 281},
      :befores => [
        # 種類, ID, 必要個数
        {:kind => :A, :id => 280, :num => 1},
        {:kind => :I, :id => 161, :num => 1},
      ],
    },
    12 => {
      :price => 19,
      :after => {:kind => :W, :id => 50},
      :befores => [
        # 種類, ID, 必要個数
        {:kind => :W, :id => 48, :num => 1},
        {:kind => :I, :id => 165, :num => 1},
      ],
    },
    13 => {
      :price => 18,
      :after => {:kind => :W, :id => 191},
      :befores => [
        # 種類, ID, 必要個数
        {:kind => :W, :id => 190, :num => 1},
        {:kind => :I, :id => 164, :num => 1},
      ],
    },
    14 => {
      :price => 15,
      :after => {:kind => :W, :id => 442},
      :befores => [
        # 種類, ID, 必要個数
        {:kind => :W, :id => 441, :num => 1},
        {:kind => :I, :id => 162, :num => 1},
      ],
    },
    15 => {
      :price => 16,
      :after => {:kind => :A, :id => 54},
      :befores => [
        # 種類, ID, 必要個数
        {:kind => :A, :id => 53, :num => 1},
        {:kind => :I, :id => 165, :num => 1},
      ],
    },
    16 => {
      :price => 8,
      :after => {:kind => :A, :id => 178},
      :befores => [
        # 種類, ID, 必要個数
        {:kind => :A, :id => 177, :num => 1},
        {:kind => :I, :id => 165, :num => 1},
      ],
    },
    17 => {
      :price => 10,
      :after => {:kind => :A, :id => 273},
      :befores => [
        # 種類, ID, 必要個数
        {:kind => :A, :id => 272, :num => 1},
        {:kind => :I, :id => 165, :num => 1},
      ],
    },
    18 => {
      :price => 35,
      :after => {:kind => :W, :id => 52},
      :befores => [
        # 種類, ID, 必要個数
        {:kind => :W, :id => 51, :num => 1},
        {:kind => :I, :id => 167, :num => 1},
      ],
    },
    19 => {
      :price => 38,
      :after => {:kind => :W, :id => 53},
      :befores => [
        # 種類, ID, 必要個数
        {:kind => :W, :id => 47, :num => 1},
        {:kind => :I, :id => 167, :num => 1},
      ],
    },
    20 => {
      :price => 35,
      :after => {:kind => :W, :id => 146},
      :befores => [
        # 種類, ID, 必要個数
        {:kind => :W, :id => 145, :num => 1},
        {:kind => :I, :id => 167, :num => 1},
      ],
    },
    21 => {
      :price => 35,
      :after => {:kind => :W, :id => 293},
      :befores => [
        # 種類, ID, 必要個数
        {:kind => :W, :id => 292, :num => 1},
        {:kind => :I, :id => 63, :num => 1},
      ],
    },
    22 => {
      :price => 28,
      :after => {:kind => :W, :id => 336},
      :befores => [
        # 種類, ID, 必要個数
        {:kind => :W, :id => 335, :num => 1},
        {:kind => :I, :id => 167, :num => 1},
      ],
    },
    23 => {
      :price => 45,
      :after => {:kind => :W, :id => 404},
      :befores => [
        # 種類, ID, 必要個数
        {:kind => :W, :id => 403, :num => 1},
        {:kind => :I, :id => 167, :num => 1},
      ],
    },
    24 => {
      :price => 45,
      :after => {:kind => :W, :id => 444},
      :befores => [
        # 種類, ID, 必要個数
        {:kind => :W, :id => 443, :num => 1},
        {:kind => :I, :id => 63, :num => 1},
      ],
    },
    25 => {
      :price => 55,
      :after => {:kind => :W, :id => 475},
      :befores => [
        # 種類, ID, 必要個数
        {:kind => :W, :id => 474, :num => 1},
        {:kind => :I, :id => 63, :num => 1},
      ],
    },
    26 => {
      :price => 48,
      :after => {:kind => :W, :id => 512},
      :befores => [
        # 種類, ID, 必要個数
        {:kind => :W, :id => 511, :num => 1},
        {:kind => :I, :id => 63, :num => 1},
      ],
    },
    27 => {
      :price => 45,
      :after => {:kind => :W, :id => 551},
      :befores => [
        # 種類, ID, 必要個数
        {:kind => :W, :id => 550, :num => 1},
        {:kind => :I, :id => 63, :num => 1},
      ],
    },
    28 => {
      :price => 35,
      :after => {:kind => :W, :id => 624},
      :befores => [
        # 種類, ID, 必要個数
        {:kind => :W, :id => 623, :num => 1},
        {:kind => :I, :id => 63, :num => 1},
      ],
    },
    29 => {
      :price => 60,
      :after => {:kind => :W, :id => 701},
      :befores => [
        # 種類, ID, 必要個数
        {:kind => :W, :id => 700, :num => 1},
        {:kind => :I, :id => 167, :num => 1},
      ],
    },
    30 => {
      :price => 65,
      :after => {:kind => :W, :id => 728},
      :befores => [
        # 種類, ID, 必要個数
        {:kind => :W, :id => 727, :num => 1},
        {:kind => :I, :id => 168, :num => 1},
      ],
    },
    31 => {
      :price => 88,
      :after => {:kind => :W, :id => 920},
      :befores => [
        # 種類, ID, 必要個数
        {:kind => :W, :id => 919, :num => 1},
        {:kind => :I, :id => 168, :num => 1},
      ],
    },
    32 => {
      :price => 35,
      :after => {:kind => :A, :id => 32},
      :befores => [
        # 種類, ID, 必要個数
        {:kind => :A, :id => 31, :num => 1},
        {:kind => :I, :id => 168, :num => 1},
      ],
    },
    33 => {
      :price => 25,
      :after => {:kind => :A, :id => 124},
      :befores => [
        # 種類, ID, 必要個数
        {:kind => :A, :id => 123, :num => 1},
        {:kind => :I, :id => 168, :num => 1},
      ],
    },
    34 => {
      :price => 30,
      :after => {:kind => :A, :id => 180},
      :befores => [
        # 種類, ID, 必要個数
        {:kind => :A, :id => 179, :num => 1},
        {:kind => :I, :id => 168, :num => 1},
      ],
    },
    35 => {
      :price => 22,
      :after => {:kind => :A, :id => 236},
      :befores => [
        # 種類, ID, 必要個数
        {:kind => :A, :id => 235, :num => 1},
        {:kind => :I, :id => 63, :num => 1},
      ],
    },
    36 => {
      :price => 28,
      :after => {:kind => :A, :id => 283},
      :befores => [
        # 種類, ID, 必要個数
        {:kind => :A, :id => 282, :num => 1},
        {:kind => :I, :id => 63, :num => 1},
      ],
    },
    37 => {
      :price => 75,
      :after => {:kind => :W, :id => 56},
      :befores => [
        # 種類, ID, 必要個数
        {:kind => :W, :id => 52, :num => 1},
        {:kind => :I, :id => 172, :num => 1},
      ],
    },
    38 => {
      :price => 85,
      :after => {:kind => :W, :id => 57},
      :befores => [
        # 種類, ID, 必要個数
        {:kind => :W, :id => 53, :num => 1},
        {:kind => :I, :id => 51, :num => 1},
        {:kind => :I, :id => 55, :num => 1},
        {:kind => :I, :id => 59, :num => 1},
      ],
    },
    39 => {
      :price => 72,
      :after => {:kind => :W, :id => 295},
      :befores => [
        # 種類, ID, 必要個数
        {:kind => :W, :id => 294, :num => 1},
        {:kind => :I, :id => 51, :num => 1},
      ],
    },
    40 => {
      :price => 72,
      :after => {:kind => :W, :id => 296},
      :befores => [
        # 種類, ID, 必要個数
        {:kind => :W, :id => 294, :num => 1},
        {:kind => :I, :id => 55, :num => 1},
      ],
    },
    41 => {
      :price => 72,
      :after => {:kind => :W, :id => 297},
      :befores => [
        # 種類, ID, 必要個数
        {:kind => :W, :id => 294, :num => 1},
        {:kind => :I, :id => 59, :num => 1},
      ],
    },
    42 => {
      :price => 118,
      :after => {:kind => :W, :id => 367},
      :befores => [
        # 種類, ID, 必要個数
        {:kind => :W, :id => 366, :num => 1},
        {:kind => :I, :id => 172, :num => 1},
      ],
    },
    43 => {
      :price => 105,
      :after => {:kind => :W, :id => 406},
      :befores => [
        # 種類, ID, 必要個数
        {:kind => :W, :id => 405, :num => 1},
        {:kind => :I, :id => 169, :num => 1},
      ],
    },
    44 => {
      :price => 88,
      :after => {:kind => :W, :id => 478},
      :befores => [
        # 種類, ID, 必要個数
        {:kind => :W, :id => 477, :num => 1},
        {:kind => :I, :id => 59, :num => 1},
      ],
    },
    45 => {
      :price => 85,
      :after => {:kind => :W, :id => 514},
      :befores => [
        # 種類, ID, 必要個数
        {:kind => :W, :id => 513, :num => 1},
        {:kind => :I, :id => 51, :num => 1},
      ],
    },
    46 => {
      :price => 85,
      :after => {:kind => :W, :id => 515},
      :befores => [
        # 種類, ID, 必要個数
        {:kind => :W, :id => 513, :num => 1},
        {:kind => :I, :id => 55, :num => 1},
      ],
    },
    47 => {
      :price => 85,
      :after => {:kind => :W, :id => 516},
      :befores => [
        # 種類, ID, 必要個数
        {:kind => :W, :id => 513, :num => 1},
        {:kind => :I, :id => 59, :num => 1},
      ],
    },
    48 => {
      :price => 95,
      :after => {:kind => :W, :id => 517},
      :befores => [
        # 種類, ID, 必要個数
        {:kind => :W, :id => 513, :num => 1},
        {:kind => :I, :id => 169, :num => 1},
      ],
    },
    49 => {
      :price => 88,
      :after => {:kind => :W, :id => 553},
      :befores => [
        # 種類, ID, 必要個数
        {:kind => :W, :id => 552, :num => 1},
        {:kind => :I, :id => 51, :num => 1},
      ],
    },
    50 => {
      :price => 88,
      :after => {:kind => :W, :id => 554},
      :befores => [
        # 種類, ID, 必要個数
        {:kind => :W, :id => 552, :num => 1},
        {:kind => :I, :id => 55, :num => 1},
      ],
    },
    51 => {
      :price => 88,
      :after => {:kind => :W, :id => 555},
      :befores => [
        # 種類, ID, 必要個数
        {:kind => :W, :id => 552, :num => 1},
        {:kind => :I, :id => 59, :num => 1},
      ],
    },
    52 => {
      :price => 104,
      :after => {:kind => :W, :id => 626},
      :befores => [
        # 種類, ID, 必要個数
        {:kind => :W, :id => 625, :num => 1},
        {:kind => :I, :id => 170, :num => 1},
      ],
    },
    53 => {
      :price => 95,
      :after => {:kind => :W, :id => 663},
      :befores => [
        # 種類, ID, 必要個数
        {:kind => :W, :id => 659, :num => 1},
        {:kind => :I, :id => 169, :num => 1},
      ],
    },
    54 => {
      :price => 128,
      :after => {:kind => :W, :id => 777},
      :befores => [
        # 種類, ID, 必要個数
        {:kind => :W, :id => 776, :num => 1},
        {:kind => :I, :id => 169, :num => 1},
      ],
    },
    55 => {
      :price => 150,
      :after => {:kind => :W, :id => 890},
      :befores => [
        # 種類, ID, 必要個数
        {:kind => :W, :id => 889, :num => 1},
        {:kind => :I, :id => 172, :num => 1},
      ],
    },
    56 => {
      :price => 87,
      :after => {:kind => :A, :id => 34},
      :befores => [
        # 種類, ID, 必要個数
        {:kind => :A, :id => 33, :num => 1},
        {:kind => :I, :id => 170, :num => 1},
      ],
    },
    57 => {
      :price => 50,
      :after => {:kind => :A, :id => 125},
      :befores => [
        # 種類, ID, 必要個数
        {:kind => :A, :id => 123, :num => 1},
        {:kind => :I, :id => 169, :num => 1},
      ],
    },
    58 => {
      :price => 60,
      :after => {:kind => :A, :id => 238},
      :befores => [
        # 種類, ID, 必要個数
        {:kind => :A, :id => 237, :num => 1},
        {:kind => :I, :id => 166, :num => 1},
      ],
    },
    59 => {
      :price => 68,
      :after => {:kind => :A, :id => 260},
      :befores => [
        # 種類, ID, 必要個数
        {:kind => :A, :id => 259, :num => 1},
        {:kind => :I, :id => 170, :num => 1},
      ],
    },
    60 => {
      :price => 58,
      :after => {:kind => :A, :id => 295},
      :befores => [
        # 種類, ID, 必要個数
        {:kind => :A, :id => 294, :num => 1},
        {:kind => :I, :id => 51, :num => 1},
      ],
    },
    61 => {
      :price => 58,
      :after => {:kind => :A, :id => 296},
      :befores => [
        # 種類, ID, 必要個数
        {:kind => :A, :id => 294, :num => 1},
        {:kind => :I, :id => 55, :num => 1},
      ],
    },
    63 => {
      :price => 75,
      :after => {:kind => :W, :id => 7},
      :befores => [
        # 種類, ID, 必要個数
        {:kind => :W, :id => 6, :num => 1},
        {:kind => :I, :id => 173, :num => 1},
      ],
    },
    64 => {
      :price => 80,
      :after => {:kind => :W, :id => 55},
      :befores => [
        # 種類, ID, 必要個数
        {:kind => :W, :id => 50, :num => 1},
        {:kind => :I, :id => 79, :num => 1},
      ],
    },
    65 => {
      :price => 110,
      :after => {:kind => :W, :id => 88},
      :befores => [
        # 種類, ID, 必要個数
        {:kind => :W, :id => 87, :num => 1},
        {:kind => :I, :id => 173, :num => 1},
      ],
    },
    66 => {
      :price => 92,
      :after => {:kind => :W, :id => 148},
      :befores => [
        # 種類, ID, 必要個数
        {:kind => :W, :id => 147, :num => 1},
        {:kind => :I, :id => 67, :num => 1},
      ],
    },
    67 => {
      :price => 140,
      :after => {:kind => :W, :id => 194},
      :befores => [
        # 種類, ID, 必要個数
        {:kind => :W, :id => 193, :num => 1},
        {:kind => :I, :id => 79, :num => 1},
      ],
    },
    68 => {
      :price => 77,
      :after => {:kind => :W, :id => 298},
      :befores => [
        # 種類, ID, 必要個数
        {:kind => :W, :id => 294, :num => 1},
        {:kind => :I, :id => 67, :num => 1},
      ],
    },
    69 => {
      :price => 102,
      :after => {:kind => :W, :id => 338},
      :befores => [
        # 種類, ID, 必要個数
        {:kind => :W, :id => 337, :num => 1},
        {:kind => :I, :id => 79, :num => 1},
      ],
    },
    70 => {
      :price => 115,
      :after => {:kind => :W, :id => 407},
      :befores => [
        # 種類, ID, 必要個数
        {:kind => :W, :id => 405, :num => 1},
        {:kind => :I, :id => 67, :num => 1},
      ],
    },
    71 => {
      :price => 96,
      :after => {:kind => :W, :id => 479},
      :befores => [
        # 種類, ID, 必要個数
        {:kind => :W, :id => 477, :num => 1},
        {:kind => :I, :id => 79, :num => 1},
      ],
    },
    72 => {
      :price => 118,
      :after => {:kind => :W, :id => 557},
      :befores => [
        # 種類, ID, 必要個数
        {:kind => :W, :id => 556, :num => 1},
        {:kind => :I, :id => 175, :num => 1},
      ],
    },
    74 => {
      :price => 134,
      :after => {:kind => :W, :id => 627},
      :befores => [
        # 種類, ID, 必要個数
        {:kind => :W, :id => 625, :num => 1},
        {:kind => :I, :id => 67, :num => 1},
      ],
    },
    75 => {
      :price => 104,
      :after => {:kind => :W, :id => 664},
      :befores => [
        # 種類, ID, 必要個数
        {:kind => :W, :id => 662, :num => 1},
        {:kind => :I, :id => 171, :num => 1},
      ],
    },
    76 => {
      :price => 150,
      :after => {:kind => :W, :id => 703},
      :befores => [
        # 種類, ID, 必要個数
        {:kind => :W, :id => 702, :num => 1},
        {:kind => :I, :id => 67, :num => 1},
      ],
    },
    77 => {
      :price => 104,
      :after => {:kind => :W, :id => 799},
      :befores => [
        # 種類, ID, 必要個数
        {:kind => :W, :id => 798, :num => 1},
        {:kind => :I, :id => 79, :num => 1},
      ],
    },
    78 => {
      :price => 140,
      :after => {:kind => :W, :id => 825},
      :befores => [
        # 種類, ID, 必要個数
        {:kind => :W, :id => 824, :num => 1},
        {:kind => :I, :id => 79, :num => 1},
      ],
    },
    79 => {
      :price => 110,
      :after => {:kind => :A, :id => 21},
      :befores => [
        # 種類, ID, 必要個数
        {:kind => :A, :id => 20, :num => 1},
        {:kind => :I, :id => 175, :num => 1},
      ],
    },
    80 => {
      :price => 88,
      :after => {:kind => :A, :id => 57},
      :befores => [
        # 種類, ID, 必要個数
        {:kind => :A, :id => 56, :num => 1},
        {:kind => :I, :id => 171, :num => 1},
      ],
    },
    81 => {
      :price => 82,
      :after => {:kind => :A, :id => 107},
      :befores => [
        # 種類, ID, 必要個数
        {:kind => :A, :id => 106, :num => 1},
        {:kind => :I, :id => 67, :num => 1},
      ],
    },
    82 => {
      :price => 430,
      :after => {:kind => :A, :id => 129},
      :befores => [
        # 種類, ID, 必要個数
        {:kind => :A, :id => 127, :num => 1},
        {:kind => :I, :id => 67, :num => 1},
      ],
    },
    83 => {
      :price => 60,
      :after => {:kind => :A, :id => 195},
      :befores => [
        # 種類, ID, 必要個数
        {:kind => :A, :id => 194, :num => 1},
        {:kind => :I, :id => 171, :num => 1},
      ],
    },
    84 => {
      :price => 80,
      :after => {:kind => :A, :id => 239},
      :befores => [
        # 種類, ID, 必要個数
        {:kind => :A, :id => 237, :num => 1},
        {:kind => :I, :id => 67, :num => 1},
      ],
    },
    85 => {
      :price => 48,
      :after => {:kind => :A, :id => 284},
      :befores => [
        # 種類, ID, 必要個数
        {:kind => :A, :id => 282, :num => 1},
        {:kind => :I, :id => 171, :num => 1},
      ],
    },
    86 => {
      :price => 65,
      :after => {:kind => :A, :id => 297},
      :befores => [
        # 種類, ID, 必要個数
        {:kind => :A, :id => 294, :num => 1},
        {:kind => :I, :id => 173, :num => 1},
      ],
    },
    87 => {
      :price => 120,
      :after => {:kind => :W, :id => 9},
      :befores => [
        # 種類, ID, 必要個数
        {:kind => :W, :id => 8, :num => 1},
        {:kind => :I, :id => 181, :num => 1},
      ],
    },
    88 => {
      :price => 160,
      :after => {:kind => :W, :id => 60},
      :befores => [
        # 種類, ID, 必要個数
        {:kind => :W, :id => 59, :num => 1},
        {:kind => :I, :id => 181, :num => 1},
      ],
    },
    89 => {
      :price => 120,
      :after => {:kind => :W, :id => 149},
      :befores => [
        # 種類, ID, 必要個数
        {:kind => :W, :id => 148, :num => 1},
        {:kind => :I, :id => 178, :num => 1},
      ],
    },
    90 => {
      :price => 150,
      :after => {:kind => :W, :id => 210},
      :befores => [
        # 種類, ID, 必要個数
        {:kind => :W, :id => 209, :num => 1},
        {:kind => :I, :id => 173, :num => 1},
      ],
    },
    91 => {
      :price => 77,
      :after => {:kind => :W, :id => 299},
      :befores => [
        # 種類, ID, 必要個数
        {:kind => :W, :id => 294, :num => 1},
        {:kind => :I, :id => 71, :num => 1},
      ],
    },
    92 => {
      :price => 148,
      :after => {:kind => :W, :id => 368},
      :befores => [
        # 種類, ID, 必要個数
        {:kind => :W, :id => 366, :num => 1},
        {:kind => :I, :id => 71, :num => 1},
      ],
    },
    93 => {
      :price => 125,
      :after => {:kind => :W, :id => 408},
      :befores => [
        # 種類, ID, 必要個数
        {:kind => :W, :id => 405, :num => 1},
        {:kind => :I, :id => 71, :num => 1},
      ],
    },
    94 => {
      :price => 128,
      :after => {:kind => :W, :id => 480},
      :befores => [
        # 種類, ID, 必要個数
        {:kind => :W, :id => 477, :num => 1},
        {:kind => :I, :id => 71, :num => 1},
      ],
    },
    95 => {
      :price => 150,
      :after => {:kind => :W, :id => 595},
      :befores => [
        # 種類, ID, 必要個数
        {:kind => :W, :id => 594, :num => 1},
        {:kind => :I, :id => 181, :num => 1},
      ],
    },
    96 => {
      :price => 164,
      :after => {:kind => :W, :id => 628},
      :befores => [
        # 種類, ID, 必要個数
        {:kind => :W, :id => 625, :num => 1},
        {:kind => :I, :id => 71, :num => 1},
      ],
    },
    97 => {
      :price => 180,
      :after => {:kind => :W, :id => 665},
      :befores => [
        # 種類, ID, 必要個数
        {:kind => :W, :id => 663, :num => 1},
        {:kind => :I, :id => 63, :num => 1},
        {:kind => :I, :id => 67, :num => 1},
        {:kind => :I, :id => 71, :num => 1},
      ],
    },
    98 => {
      :price => 99,
      :after => {:kind => :W, :id => 730},
      :befores => [
        # 種類, ID, 必要個数
        {:kind => :W, :id => 729, :num => 1},
        {:kind => :I, :id => 71, :num => 1},
      ],
    },
    99 => {
      :price => 139,
      :after => {:kind => :W, :id => 731},
      :befores => [
        # 種類, ID, 必要個数
        {:kind => :W, :id => 729, :num => 1},
        {:kind => :I, :id => 174, :num => 1},
      ],
    },
    100 => {
      :price => 150,
      :after => {:kind => :W, :id => 757},
      :befores => [
        # 種類, ID, 必要個数
        {:kind => :W, :id => 756, :num => 1},
        {:kind => :I, :id => 178, :num => 1},
      ],
    },
    101 => {
      :price => 107,
      :after => {:kind => :W, :id => 847},
      :befores => [
        # 種類, ID, 必要個数
        {:kind => :W, :id => 846, :num => 1},
        {:kind => :I, :id => 174, :num => 1},
      ],
    },
    102 => {
      :price => 120,
      :after => {:kind => :W, :id => 869},
      :befores => [
        # 種類, ID, 必要個数
        {:kind => :W, :id => 868, :num => 1},
        {:kind => :I, :id => 176, :num => 1},
      ],
    },
    103 => {
      :price => 70,
      :after => {:kind => :A, :id => 6},
      :befores => [
        # 種類, ID, 必要個数
        {:kind => :A, :id => 5, :num => 1},
        {:kind => :I, :id => 175, :num => 1},
      ],
    },
    104 => {
      :price => 107,
      :after => {:kind => :A, :id => 35},
      :befores => [
        # 種類, ID, 必要個数
        {:kind => :A, :id => 33, :num => 1},
        {:kind => :I, :id => 71, :num => 1},
      ],
    },
    105 => {
      :price => 148,
      :after => {:kind => :A, :id => 58},
      :befores => [
        # 種類, ID, 必要個数
        {:kind => :A, :id => 57, :num => 1},
        {:kind => :I, :id => 176, :num => 1},
      ],
    },
    106 => {
      :price => 430,
      :after => {:kind => :A, :id => 130},
      :befores => [
        # 種類, ID, 必要個数
        {:kind => :A, :id => 127, :num => 1},
        {:kind => :I, :id => 71, :num => 1},
      ],
    },
    107 => {
      :price => 180,
      :after => {:kind => :A, :id => 150},
      :befores => [
        # 種類, ID, 必要個数
        {:kind => :A, :id => 149, :num => 1},
        {:kind => :I, :id => 174, :num => 1},
      ],
    },
    108 => {
      :price => 150,
      :after => {:kind => :A, :id => 165},
      :befores => [
        # 種類, ID, 必要個数
        {:kind => :A, :id => 163, :num => 1},
        {:kind => :I, :id => 176, :num => 1},
      ],
    },
    109 => {
      :price => 60,
      :after => {:kind => :A, :id => 184},
      :befores => [
        # 種類, ID, 必要個数
        {:kind => :A, :id => 183, :num => 1},
        {:kind => :I, :id => 175, :num => 1},
      ],
    },
    110 => {
      :price => 100,
      :after => {:kind => :A, :id => 240},
      :befores => [
        # 種類, ID, 必要個数
        {:kind => :A, :id => 237, :num => 1},
        {:kind => :I, :id => 71, :num => 1},
      ],
    },
    111 => {
      :price => 75,
      :after => {:kind => :A, :id => 285},
      :befores => [
        # 種類, ID, 必要個数
        {:kind => :A, :id => 284, :num => 1},
        {:kind => :I, :id => 71, :num => 1},
      ],
    },
    112 => {
      :price => 240,
      :after => {:kind => :W, :id => 62},
      :befores => [
        # 種類, ID, 必要個数
        {:kind => :W, :id => 57, :num => 1},
        {:kind => :I, :id => 75, :num => 1},
      ],
    },
    113 => {
      :price => 250,
      :after => {:kind => :W, :id => 90},
      :befores => [
        # 種類, ID, 必要個数
        {:kind => :W, :id => 89, :num => 1},
        {:kind => :I, :id => 182, :num => 1},
      ],
    },
    114 => {
      :price => 150,
      :after => {:kind => :W, :id => 150},
      :befores => [
        # 種類, ID, 必要個数
        {:kind => :W, :id => 147, :num => 1},
        {:kind => :I, :id => 75, :num => 1},
      ],
    },
    115 => {
      :price => 200,
      :after => {:kind => :W, :id => 195},
      :befores => [
        # 種類, ID, 必要個数
        {:kind => :W, :id => 193, :num => 1},
        {:kind => :I, :id => 75, :num => 1},
      ],
    },
    116 => {
      :price => 250,
      :after => {:kind => :W, :id => 212},
      :befores => [
        # 種類, ID, 必要個数
        {:kind => :W, :id => 211, :num => 1},
        {:kind => :I, :id => 182, :num => 1},
      ],
    },
    117 => {
      :price => 170,
      :after => {:kind => :W, :id => 301},
      :befores => [
        # 種類, ID, 必要個数
        {:kind => :W, :id => 300, :num => 1},
        {:kind => :I, :id => 182, :num => 1},
      ],
    },
    118 => {
      :price => 142,
      :after => {:kind => :W, :id => 339},
      :befores => [
        # 種類, ID, 必要個数
        {:kind => :W, :id => 338, :num => 1},
        {:kind => :I, :id => 75, :num => 1},
      ],
    },
    119 => {
      :price => 240,
      :after => {:kind => :W, :id => 370},
      :befores => [
        # 種類, ID, 必要個数
        {:kind => :W, :id => 369, :num => 1},
        {:kind => :I, :id => 75, :num => 1},
      ],
    },
    120 => {
      :price => 220,
      :after => {:kind => :W, :id => 410},
      :befores => [
        # 種類, ID, 必要個数
        {:kind => :W, :id => 55, :num => 1},
        {:kind => :I, :id => 184, :num => 1},
      ],
    },
    121 => {
      :price => 220,
      :after => {:kind => :W, :id => 411},
      :befores => [
        # 種類, ID, 必要個数
        {:kind => :W, :id => 406, :num => 1},
        {:kind => :I, :id => 75, :num => 1},
      ],
    },
    122 => {
      :price => 200,
      :after => {:kind => :W, :id => 447},
      :befores => [
        # 種類, ID, 必要個数
        {:kind => :W, :id => 446, :num => 1},
        {:kind => :I, :id => 184, :num => 1},
      ],
    },
    123 => {
      :price => 200,
      :after => {:kind => :W, :id => 559},
      :befores => [
        # 種類, ID, 必要個数
        {:kind => :W, :id => 558, :num => 1},
        {:kind => :I, :id => 181, :num => 1},
      ],
    },
    124 => {
      :price => 230,
      :after => {:kind => :W, :id => 596},
      :befores => [
        # 種類, ID, 必要個数
        {:kind => :W, :id => 593, :num => 1},
        {:kind => :I, :id => 179, :num => 1},
      ],
    },
    125 => {
      :price => 184,
      :after => {:kind => :W, :id => 629},
      :befores => [
        # 種類, ID, 必要個数
        {:kind => :W, :id => 625, :num => 1},
        {:kind => :I, :id => 75, :num => 1},
      ],
    },
    126 => {
      :price => 270,
      :after => {:kind => :W, :id => 667},
      :befores => [
        # 種類, ID, 必要個数
        {:kind => :W, :id => 665, :num => 1},
        {:kind => :I, :id => 177, :num => 1},
      ],
    },
    127 => {
      :price => 250,
      :after => {:kind => :W, :id => 668},
      :befores => [
        # 種類, ID, 必要個数
        {:kind => :W, :id => 666, :num => 1},
        {:kind => :I, :id => 183, :num => 1},
      ],
    },
    128 => {
      :price => 200,
      :after => {:kind => :W, :id => 704},
      :befores => [
        # 種類, ID, 必要個数
        {:kind => :W, :id => 703, :num => 1},
        {:kind => :I, :id => 184, :num => 1},
      ],
    },
    129 => {
      :price => 210,
      :after => {:kind => :W, :id => 732},
      :befores => [
        # 種類, ID, 必要個数
        {:kind => :W, :id => 729, :num => 1},
        {:kind => :I, :id => 181, :num => 1},
      ],
    },
    130 => {
      :price => 170,
      :after => {:kind => :W, :id => 778},
      :befores => [
        # 種類, ID, 必要個数
        {:kind => :W, :id => 776, :num => 1},
        {:kind => :I, :id => 183, :num => 1},
      ],
    },
    131 => {
      :price => 160,
      :after => {:kind => :W, :id => 826},
      :befores => [
        # 種類, ID, 必要個数
        {:kind => :W, :id => 824, :num => 1},
        {:kind => :I, :id => 75, :num => 1},
      ],
    },
    132 => {
      :price => 200,
      :after => {:kind => :W, :id => 848},
      :befores => [
        # 種類, ID, 必要個数
        {:kind => :W, :id => 846, :num => 1},
        {:kind => :I, :id => 181, :num => 1},
      ],
    },
    133 => {
      :price => 220,
      :after => {:kind => :W, :id => 871},
      :befores => [
        # 種類, ID, 必要個数
        {:kind => :W, :id => 870, :num => 1},
        {:kind => :I, :id => 180, :num => 1},
      ],
    },
    134 => {
      :price => 340,
      :after => {:kind => :W, :id => 893},
      :befores => [
        # 種類, ID, 必要個数
        {:kind => :W, :id => 890, :num => 1},
        {:kind => :I, :id => 183, :num => 1},
      ],
    },
    135 => {
      :price => 250,
      :after => {:kind => :W, :id => 922},
      :befores => [
        # 種類, ID, 必要個数
        {:kind => :W, :id => 919, :num => 1},
        {:kind => :I, :id => 179, :num => 1},
      ],
    },
    136 => {
      :price => 137,
      :after => {:kind => :A, :id => 36},
      :befores => [
        # 種類, ID, 必要個数
        {:kind => :A, :id => 35, :num => 1},
        {:kind => :I, :id => 75, :num => 1},
      ],
    },
    137 => {
      :price => 208,
      :after => {:kind => :A, :id => 59},
      :befores => [
        # 種類, ID, 必要個数
        {:kind => :A, :id => 58, :num => 1},
        {:kind => :I, :id => 179, :num => 1},
      ],
    },
    138 => {
      :price => 290,
      :after => {:kind => :A, :id => 72},
      :befores => [
        # 種類, ID, 必要個数
        {:kind => :A, :id => 71, :num => 1},
        {:kind => :I, :id => 75, :num => 1},
      ],
    },
    139 => {
      :price => 350,
      :after => {:kind => :A, :id => 131},
      :befores => [
        # 種類, ID, 必要個数
        {:kind => :A, :id => 126, :num => 1},
        {:kind => :I, :id => 75, :num => 1},
      ],
    },
    140 => {
      :price => 190,
      :after => {:kind => :A, :id => 166},
      :befores => [
        # 種類, ID, 必要個数
        {:kind => :A, :id => 164, :num => 1},
        {:kind => :I, :id => 181, :num => 1},
      ],
    },
    141 => {
      :price => 110,
      :after => {:kind => :A, :id => 196},
      :befores => [
        # 種類, ID, 必要個数
        {:kind => :A, :id => 195, :num => 1},
        {:kind => :I, :id => 75, :num => 1},
      ],
    },
    142 => {
      :price => 180,
      :after => {:kind => :A, :id => 205},
      :befores => [
        # 種類, ID, 必要個数
        {:kind => :A, :id => 204, :num => 1},
        {:kind => :I, :id => 182, :num => 1},
      ],
    },
    143 => {
      :price => 250,
      :after => {:kind => :A, :id => 262},
      :befores => [
        # 種類, ID, 必要個数
        {:kind => :A, :id => 261, :num => 1},
        {:kind => :I, :id => 75, :num => 1},
      ],
    },
    144 => {
      :price => 150,
      :after => {:kind => :A, :id => 299},
      :befores => [
        # 種類, ID, 必要個数
        {:kind => :A, :id => 298, :num => 1},
        {:kind => :I, :id => 180, :num => 1},
      ],
    },
    145 => {
      :price => 185,
      :after => {:kind => :W, :id => 13},
      :befores => [
        # 種類, ID, 必要個数
        {:kind => :W, :id => 10, :num => 1},
        {:kind => :I, :id => 64, :num => 1},
      ],
    },
    146 => {
      :price => 250,
      :after => {:kind => :W, :id => 63},
      :befores => [
        # 種類, ID, 必要個数
        {:kind => :W, :id => 61, :num => 1},
        {:kind => :I, :id => 64, :num => 1},
      ],
    },
    147 => {
      :price => 480,
      :after => {:kind => :W, :id => 92},
      :befores => [
        # 種類, ID, 必要個数
        {:kind => :W, :id => 91, :num => 1},
        {:kind => :I, :id => 189, :num => 1},
      ],
    },
    148 => {
      :price => 310,
      :after => {:kind => :W, :id => 152},
      :befores => [
        # 種類, ID, 必要個数
        {:kind => :W, :id => 151, :num => 1},
        {:kind => :I, :id => 186, :num => 1},
      ],
    },
    149 => {
      :price => 280,
      :after => {:kind => :W, :id => 197},
      :befores => [
        # 種類, ID, 必要個数
        {:kind => :W, :id => 196, :num => 1},
        {:kind => :I, :id => 189, :num => 1},
      ],
    },
    150 => {
      :price => 350,
      :after => {:kind => :W, :id => 214},
      :befores => [
        # 種類, ID, 必要個数
        {:kind => :W, :id => 213, :num => 1},
        {:kind => :I, :id => 185, :num => 1},
      ],
    },
    151 => {
      :price => 250,
      :after => {:kind => :W, :id => 303},
      :befores => [
        # 種類, ID, 必要個数
        {:kind => :W, :id => 302, :num => 1},
        {:kind => :I, :id => 189, :num => 1},
      ],
    },
    152 => {
      :price => 250,
      :after => {:kind => :W, :id => 341},
      :befores => [
        # 種類, ID, 必要個数
        {:kind => :W, :id => 340, :num => 1},
        {:kind => :I, :id => 186, :num => 1},
      ],
    },
    153 => {
      :price => 480,
      :after => {:kind => :W, :id => 373},
      :befores => [
        # 種類, ID, 必要個数
        {:kind => :W, :id => 370, :num => 1},
        {:kind => :I, :id => 189, :num => 1},
      ],
    },
    154 => {
      :price => 320,
      :after => {:kind => :W, :id => 413},
      :befores => [
        # 種類, ID, 必要個数
        {:kind => :W, :id => 410, :num => 1},
        {:kind => :I, :id => 64, :num => 1},
      ],
    },
    155 => {
      :price => 450,
      :after => {:kind => :W, :id => 449},
      :befores => [
        # 種類, ID, 必要個数
        {:kind => :W, :id => 447, :num => 1},
        {:kind => :I, :id => 186, :num => 1},
      ],
    },
    156 => {
      :price => 280,
      :after => {:kind => :W, :id => 483},
      :befores => [
        # 種類, ID, 必要個数
        {:kind => :W, :id => 482, :num => 1},
        {:kind => :I, :id => 185, :num => 1},
      ],
    },
    157 => {
      :price => 340,
      :after => {:kind => :W, :id => 521},
      :befores => [
        # 種類, ID, 必要個数
        {:kind => :W, :id => 518, :num => 1},
        {:kind => :I, :id => 189, :num => 1},
      ],
    },
    158 => {
      :price => 400,
      :after => {:kind => :W, :id => 562},
      :befores => [
        # 種類, ID, 必要個数
        {:kind => :W, :id => 561, :num => 1},
        {:kind => :I, :id => 188, :num => 1},
      ],
    },
    159 => {
      :price => 330,
      :after => {:kind => :W, :id => 631},
      :befores => [
        # 種類, ID, 必要個数
        {:kind => :W, :id => 629, :num => 1},
        {:kind => :I, :id => 188, :num => 1},
      ],
    },
    160 => {
      :price => 330,
      :after => {:kind => :W, :id => 632},
      :befores => [
        # 種類, ID, 必要個数
        {:kind => :W, :id => 630, :num => 1},
        {:kind => :I, :id => 189, :num => 1},
      ],
    },
    161 => {
      :price => 430,
      :after => {:kind => :W, :id => 671},
      :befores => [
        # 種類, ID, 必要個数
        {:kind => :W, :id => 667, :num => 1},
        {:kind => :I, :id => 188, :num => 1},
      ],
    },
    162 => {
      :price => 400,
      :after => {:kind => :W, :id => 706},
      :befores => [
        # 種類, ID, 必要個数
        {:kind => :W, :id => 705, :num => 1},
        {:kind => :I, :id => 189, :num => 1},
      ],
    },
    163 => {
      :price => 330,
      :after => {:kind => :W, :id => 759},
      :befores => [
        # 種類, ID, 必要個数
        {:kind => :W, :id => 758, :num => 1},
        {:kind => :I, :id => 185, :num => 1},
      ],
    },
    164 => {
      :price => 410,
      :after => {:kind => :W, :id => 828},
      :befores => [
        # 種類, ID, 必要個数
        {:kind => :W, :id => 827, :num => 1},
        {:kind => :I, :id => 186, :num => 1},
      ],
    },
    165 => {
      :price => 330,
      :after => {:kind => :W, :id => 872},
      :befores => [
        # 種類, ID, 必要個数
        {:kind => :W, :id => 871, :num => 1},
        {:kind => :I, :id => 185, :num => 1},
      ],
    },
    166 => {
      :price => 510,
      :after => {:kind => :W, :id => 895},
      :befores => [
        # 種類, ID, 必要個数
        {:kind => :W, :id => 894, :num => 1},
        {:kind => :I, :id => 64, :num => 1},
      ],
    },
    167 => {
      :price => 330,
      :after => {:kind => :A, :id => 9},
      :befores => [
        # 種類, ID, 必要個数
        {:kind => :A, :id => 6, :num => 1},
        {:kind => :I, :id => 187, :num => 1},
      ],
    },
    168 => {
      :price => 310,
      :after => {:kind => :A, :id => 38},
      :befores => [
        # 種類, ID, 必要個数
        {:kind => :A, :id => 37, :num => 1},
        {:kind => :I, :id => 187, :num => 1},
      ],
    },
    169 => {
      :price => 380,
      :after => {:kind => :A, :id => 61},
      :befores => [
        # 種類, ID, 必要個数
        {:kind => :A, :id => 60, :num => 1},
        {:kind => :I, :id => 187, :num => 1},
      ],
    },
    170 => {
      :price => 380,
      :after => {:kind => :A, :id => 74},
      :befores => [
        # 種類, ID, 必要個数
        {:kind => :A, :id => 73, :num => 1},
        {:kind => :I, :id => 187, :num => 1},
      ],
    },
    171 => {
      :price => 430,
      :after => {:kind => :A, :id => 128},
      :befores => [
        # 種類, ID, 必要個数
        {:kind => :A, :id => 127, :num => 1},
        {:kind => :I, :id => 64, :num => 1},
      ],
    },
    172 => {
      :price => 450,
      :after => {:kind => :A, :id => 132},
      :befores => [
        # 種類, ID, 必要個数
        {:kind => :A, :id => 131, :num => 1},
        {:kind => :I, :id => 188, :num => 1},
      ],
    },
    173 => {
      :price => 130,
      :after => {:kind => :A, :id => 186},
      :befores => [
        # 種類, ID, 必要個数
        {:kind => :A, :id => 185, :num => 1},
        {:kind => :I, :id => 185, :num => 1},
      ],
    },
    174 => {
      :price => 290,
      :after => {:kind => :A, :id => 198},
      :befores => [
        # 種類, ID, 必要個数
        {:kind => :A, :id => 197, :num => 1},
        {:kind => :I, :id => 189, :num => 1},
      ],
    },
    175 => {
      :price => 180,
      :after => {:kind => :A, :id => 242},
      :befores => [
        # 種類, ID, 必要個数
        {:kind => :A, :id => 241, :num => 1},
        {:kind => :I, :id => 64, :num => 1},
      ],
    },
    176 => {
      :price => 190,
      :after => {:kind => :A, :id => 287},
      :befores => [
        # 種類, ID, 必要個数
        {:kind => :A, :id => 286, :num => 1},
        {:kind => :I, :id => 64, :num => 1},
      ],
    },
    177 => {
      :price => 300,
      :after => {:kind => :A, :id => 301},
      :befores => [
        # 種類, ID, 必要個数
        {:kind => :A, :id => 300, :num => 1},
        {:kind => :I, :id => 185, :num => 1},
      ],
    },
    178 => {
      :price => 420,
      :after => {:kind => :W, :id => 16},
      :befores => [
        # 種類, ID, 必要個数
        {:kind => :W, :id => 14, :num => 1},
        {:kind => :I, :id => 191, :num => 1},
      ],
    },
    179 => {
      :price => 500,
      :after => {:kind => :W, :id => 64},
      :befores => [
        # 種類, ID, 必要個数
        {:kind => :W, :id => 62, :num => 1},
        {:kind => :I, :id => 198, :num => 1},
      ],
    },
    180 => {
      :price => 700,
      :after => {:kind => :W, :id => 96},
      :befores => [
        # 種類, ID, 必要個数
        {:kind => :W, :id => 94, :num => 1},
        {:kind => :I, :id => 197, :num => 1},
      ],
    },
    181 => {
      :price => 400,
      :after => {:kind => :W, :id => 153},
      :befores => [
        # 種類, ID, 必要個数
        {:kind => :W, :id => 149, :num => 1},
        {:kind => :I, :id => 193, :num => 1},
      ],
    },
    182 => {
      :price => 550,
      :after => {:kind => :W, :id => 216},
      :befores => [
        # 種類, ID, 必要個数
        {:kind => :W, :id => 215, :num => 1},
        {:kind => :I, :id => 194, :num => 1},
      ],
    },
    183 => {
      :price => 550,
      :after => {:kind => :W, :id => 306},
      :befores => [
        # 種類, ID, 必要個数
        {:kind => :W, :id => 305, :num => 1},
        {:kind => :I, :id => 195, :num => 1},
      ],
    },
    184 => {
      :price => 300,
      :after => {:kind => :W, :id => 342},
      :befores => [
        # 種類, ID, 必要個数
        {:kind => :W, :id => 341, :num => 1},
        {:kind => :I, :id => 194, :num => 1},
      ],
    },
    185 => {
      :price => 730,
      :after => {:kind => :W, :id => 377},
      :befores => [
        # 種類, ID, 必要個数
        {:kind => :W, :id => 376, :num => 1},
        {:kind => :I, :id => 198, :num => 1},
      ],
    },
    186 => {
      :price => 450,
      :after => {:kind => :W, :id => 414},
      :befores => [
        # 種類, ID, 必要個数
        {:kind => :W, :id => 412, :num => 1},
        {:kind => :I, :id => 191, :num => 1},
      ],
    },
    187 => {
      :price => 520,
      :after => {:kind => :W, :id => 419},
      :befores => [
        # 種類, ID, 必要個数
        {:kind => :W, :id => 415, :num => 1},
        {:kind => :I, :id => 198, :num => 1},
      ],
    },
    188 => {
      :price => 500,
      :after => {:kind => :W, :id => 485},
      :befores => [
        # 種類, ID, 必要個数
        {:kind => :W, :id => 484, :num => 1},
        {:kind => :I, :id => 195, :num => 1},
      ],
    },
    189 => {
      :price => 680,
      :after => {:kind => :W, :id => 523},
      :befores => [
        # 種類, ID, 必要個数
        {:kind => :W, :id => 522, :num => 1},
        {:kind => :I, :id => 195, :num => 1},
      ],
    },
    190 => {
      :price => 600,
      :after => {:kind => :W, :id => 599},
      :befores => [
        # 種類, ID, 必要個数
        {:kind => :W, :id => 596, :num => 1},
        {:kind => :I, :id => 190, :num => 1},
      ],
    },
    191 => {
      :price => 450,
      :after => {:kind => :W, :id => 633},
      :befores => [
        # 種類, ID, 必要個数
        {:kind => :W, :id => 630, :num => 1},
        {:kind => :I, :id => 193, :num => 1},
      ],
    },
    192 => {
      :price => 450,
      :after => {:kind => :W, :id => 634},
      :befores => [
        # 種類, ID, 必要個数
        {:kind => :W, :id => 630, :num => 1},
        {:kind => :I, :id => 190, :num => 1},
      ],
    },
    193 => {
      :price => 460,
      :after => {:kind => :W, :id => 672},
      :befores => [
        # 種類, ID, 必要個数
        {:kind => :W, :id => 670, :num => 1},
        {:kind => :I, :id => 197, :num => 1},
      ],
    },
    194 => {
      :price => 500,
      :after => {:kind => :W, :id => 707},
      :befores => [
        # 種類, ID, 必要個数
        {:kind => :W, :id => 706, :num => 1},
        {:kind => :I, :id => 196, :num => 1},
      ],
    },
    195 => {
      :price => 370,
      :after => {:kind => :W, :id => 734},
      :befores => [
        # 種類, ID, 必要個数
        {:kind => :W, :id => 733, :num => 1},
        {:kind => :I, :id => 192, :num => 1},
      ],
    },
    196 => {
      :price => 380,
      :after => {:kind => :W, :id => 802},
      :befores => [
        # 種類, ID, 必要個数
        {:kind => :W, :id => 800, :num => 1},
        {:kind => :I, :id => 194, :num => 1},
      ],
    },
    197 => {
      :price => 450,
      :after => {:kind => :W, :id => 850},
      :befores => [
        # 種類, ID, 必要個数
        {:kind => :W, :id => 849, :num => 1},
        {:kind => :I, :id => 190, :num => 1},
      ],
    },
    198 => {
      :price => 430,
      :after => {:kind => :A, :id => 39},
      :befores => [
        # 種類, ID, 必要個数
        {:kind => :A, :id => 37, :num => 1},
        {:kind => :I, :id => 196, :num => 1},
      ],
    },
    199 => {
      :price => 650,
      :after => {:kind => :A, :id => 77},
      :befores => [
        # 種類, ID, 必要個数
        {:kind => :A, :id => 75, :num => 1},
        {:kind => :I, :id => 197, :num => 1},
      ],
    },
    200 => {
      :price => 310,
      :after => {:kind => :A, :id => 109},
      :befores => [
        # 種類, ID, 必要個数
        {:kind => :A, :id => 108, :num => 1},
        {:kind => :I, :id => 191, :num => 1},
      ],
    },
    201 => {
      :price => 340,
      :after => {:kind => :A, :id => 151},
      :befores => [
        # 種類, ID, 必要個数
        {:kind => :A, :id => 149, :num => 1},
        {:kind => :I, :id => 193, :num => 1},
      ],
    },
    202 => {
      :price => 350,
      :after => {:kind => :A, :id => 199},
      :befores => [
        # 種類, ID, 必要個数
        {:kind => :A, :id => 198, :num => 1},
        {:kind => :I, :id => 196, :num => 1},
      ],
    },
    203 => {
      :price => 500,
      :after => {:kind => :A, :id => 263},
      :befores => [
        # 種類, ID, 必要個数
        {:kind => :A, :id => 262, :num => 1},
        {:kind => :I, :id => 193, :num => 1},
      ],
    },
    204 => {
      :price => 100,
      :after => {:kind => :A, :id => 275},
      :befores => [
        # 種類, ID, 必要個数
        {:kind => :A, :id => 274, :num => 1},
        {:kind => :I, :id => 192, :num => 1},
      ],
    },
    205 => {
      :price => 220,
      :after => {:kind => :A, :id => 303},
      :befores => [
        # 種類, ID, 必要個数
        {:kind => :A, :id => 302, :num => 1},
        {:kind => :I, :id => 197, :num => 1},
      ],
    },
    206 => {
      :price => 500,
      :after => {:kind => :W, :id => 18},
      :befores => [
        # 種類, ID, 必要個数
        {:kind => :W, :id => 15, :num => 1},
        {:kind => :I, :id => 68, :num => 1},
      ],
    },
    207 => {
      :price => 730,
      :after => {:kind => :W, :id => 66},
      :befores => [
        # 種類, ID, 必要個数
        {:kind => :W, :id => 65, :num => 1},
        {:kind => :I, :id => 68, :num => 1},
      ],
    },
    208 => {
      :price => 1100,
      :after => {:kind => :W, :id => 126},
      :befores => [
        # 種類, ID, 必要個数
        {:kind => :W, :id => 125, :num => 1},
        {:kind => :I, :id => 68, :num => 1},
      ],
    },
    209 => {
      :price => 330,
      :after => {:kind => :W, :id => 198},
      :befores => [
        # 種類, ID, 必要個数
        {:kind => :W, :id => 197, :num => 1},
        {:kind => :I, :id => 68, :num => 1},
      ],
    },
    210 => {
      :price => 720,
      :after => {:kind => :W, :id => 217},
      :befores => [
        # 種類, ID, 必要個数
        {:kind => :W, :id => 216, :num => 1},
        {:kind => :I, :id => 68, :num => 1},
      ],
    },
    211 => {
      :price => 600,
      :after => {:kind => :W, :id => 375},
      :befores => [
        # 種類, ID, 必要個数
        {:kind => :W, :id => 374, :num => 1},
        {:kind => :I, :id => 68, :num => 1},
      ],
    },
    212 => {
      :price => 600,
      :after => {:kind => :W, :id => 486},
      :befores => [
        # 種類, ID, 必要個数
        {:kind => :W, :id => 485, :num => 1},
        {:kind => :I, :id => 199, :num => 1},
      ],
    },
    213 => {
      :price => 500,
      :after => {:kind => :W, :id => 564},
      :befores => [
        # 種類, ID, 必要個数
        {:kind => :W, :id => 563, :num => 1},
        {:kind => :I, :id => 199, :num => 1},
      ],
    },
    214 => {
      :price => 650,
      :after => {:kind => :W, :id => 673},
      :befores => [
        # 種類, ID, 必要個数
        {:kind => :W, :id => 668, :num => 1},
        {:kind => :I, :id => 200, :num => 1},
      ],
    },
    215 => {
      :price => 220,
      :after => {:kind => :W, :id => 780},
      :befores => [
        # 種類, ID, 必要個数
        {:kind => :W, :id => 778, :num => 1},
        {:kind => :I, :id => 200, :num => 1},
      ],
    },
    216 => {
      :price => 550,
      :after => {:kind => :W, :id => 803},
      :befores => [
        # 種類, ID, 必要個数
        {:kind => :W, :id => 802, :num => 1},
        {:kind => :I, :id => 199, :num => 1},
      ],
    },
    217 => {
      :price => 440,
      :after => {:kind => :W, :id => 873},
      :befores => [
        # 種類, ID, 必要個数
        {:kind => :W, :id => 872, :num => 1},
        {:kind => :I, :id => 68, :num => 1},
      ],
    },
    218 => {
      :price => 730,
      :after => {:kind => :W, :id => 898},
      :befores => [
        # 種類, ID, 必要個数
        {:kind => :W, :id => 893, :num => 1},
        {:kind => :I, :id => 200, :num => 1},
      ],
    },
    219 => {
      :price => 550,
      :after => {:kind => :W, :id => 923},
      :befores => [
        # 種類, ID, 必要個数
        {:kind => :W, :id => 922, :num => 1},
        {:kind => :I, :id => 199, :num => 1},
      ],
    },
    220 => {
      :price => 400,
      :after => {:kind => :A, :id => 62},
      :befores => [
        # 種類, ID, 必要個数
        {:kind => :A, :id => 60, :num => 1},
        {:kind => :I, :id => 68, :num => 1},
      ],
    },
    221 => {
      :price => 570,
      :after => {:kind => :A, :id => 133},
      :befores => [
        # 種類, ID, 必要個数
        {:kind => :A, :id => 127, :num => 1},
        {:kind => :I, :id => 199, :num => 1},
      ],
    },
    222 => {
      :price => 390,
      :after => {:kind => :A, :id => 207},
      :befores => [
        # 種類, ID, 必要個数
        {:kind => :A, :id => 206, :num => 1},
        {:kind => :I, :id => 68, :num => 1},
      ],
    },
    223 => {
      :price => 220,
      :after => {:kind => :A, :id => 243},
      :befores => [
        # 種類, ID, 必要個数
        {:kind => :A, :id => 241, :num => 1},
        {:kind => :I, :id => 68, :num => 1},
      ],
    },
    224 => {
      :price => 220,
      :after => {:kind => :A, :id => 288},
      :befores => [
        # 種類, ID, 必要個数
        {:kind => :A, :id => 286, :num => 1},
        {:kind => :I, :id => 68, :num => 1},
      ],
    },
  }

  # 店一覧
  Shops = {
    # 店ID => [レシピID, レシピID, レシピID...]
    1 => [1],
    2 => [4,1],
    3 => [3,4,5,6,7,8,9,10,11],
    4 => [12,13,14,15,16,17],
    5 => [18,19,20,21,22,23,24,25,26,27,28,29,30,31,32,33,34,35,36],
    6 => [37,38,39,40,41,42,43,44,45,46,47,48,49,50,51,52,53,54,55,56,57,58,59,60,61],
    7 => [63,64,65,66,67,68,69,70,71,72,74,75,76,77,78,79,80,81,82,83,84,85,86],
    8 => [87,88,89,90,91,92,93,94,95,96,97,98,99,100,101,102,103,104,105,106,107,108,109,110,111],
    9 => [112,113,114,115,116,117,118,119,120,121,122,123,124,125,126,127,128,129,130,131,132,133,134,135,136,137,138,139,140,141,142,143,144],
    10 => [145,146,147,148,149,150,151,152,153,154,155,156,157,158,159,160,161,162,163,164,165,166,167,168,169,170,171,172,173,174,175,176,177],
    11 => [178,179,180,181,182,183,184,185,186,187,188,189,190,191,192,193,194,195,196,197,198,199,200,201,202,203,204,205],
    12 => [206,207,208,209,210,211,212,213,214,215,216,217,218,219,220,221,222,223,224],
  }
end

