# -*- encoding: utf-8 -*-
=begin
= ID予約

=end

#==============================================================================
# ■ NWConst::Sw
#==============================================================================
module NWConst::Sw
  # 自動メッセージ利用フラグとして扱うスイッチ番号（素材：メッセージ制御文字拡張で使用）
  AUTO_MESSAGE = 2
  # 仲間加入拒否スイッチID
  FOLLWER_DISABLE = 3
  # ニューゲーム時とロード時にオンにするスイッチID
  ON_GAME_START = 24
  # オンの時、<エンカウント半減/無効>の無効化およびスキル/アイテム効果「逃げる」の無効化
  STRICT_ENCOUNT = 52
  # 上級職・上級種の解放スイッチID
  OPEN_CLASS_LANK2 = 90
  # 最上級職・最上級種の解放スイッチID
  OPEN_CLASS_LANK3 = 91
  # 封印職・封印種の解放スイッチID
  OPEN_CLASS_LANK4 = 92
  # 捕食シーンカットスイッチID
  CUT_PREDATION = 95
  # 全滅不能スイッチ
  ALL_DEAD_DISABLE = 96
  # 経験値入手不能スイッチ
  GET_EXP_DISABLE = 97
  # 簡易ステータスを表示するスイッチID
  SIMPLE_STATUS = 98
  # 擬似敗北イベント中フラグ
  LOSE_EVENT = 99  
  # ワープ禁止スイッチID
  WARP_BAN = 100
  # ワープ開放フラグのベース値
  # 実際にアクセスするのはベース値+NWConst::Warp::Placesのインデックス値になります
  WARP_OPEN_BASE = 101
  # 図鑑用地名スイッチ番号ベース値
  # 実際にアクセスするのはベース値+PLACEのインデックス値
  PLACE_FLAG_BASE = 201    
  # 仲間になったアクターIDを格納するベース値
  # 実際にアクセスするのはベース値+アクターID
  ADD_ACTOR_BASE = 1000
end

#==============================================================================
# ■ NWConst::Var
#==============================================================================
module NWConst::Var
  # この変数の値が1以上なら、特定イベントコマンド(トリス修正Q参照)の敵番号をその値に強制変換
  EVENT_ENEMY_ID = 112
  # 敵のパラメーター補正を与える変数
  PARAM1 = 41 # MHP
  PARAM2 = 42 # ATK, MAG, DEX
  PARAM3 = 43 # DEF, MDF
  PARAM4 = 44 # AGI
  PARAM_STATE_RATE = {
    # ステート有効度  敵のステート有効度に [変数の値]% を乗算する
    # ただし変数の値が0なら100%（変化なし）、マイナスなら0%とする
    #   ステートID => 変数ID,
    230 => 45,
    231 => 45,
    232 => 45,
  }
  # 戦闘後終了時に上がる好感度を格納する変数の番号
  BATTLE_END_GAIN_LOVE = 52  
  # スキル使用者のIDを格納する変数の番号
  ACTION_USER = 100
  # スキル対象者のIDを格納する変数の番号
  ACTION_TARGET = 101
  # 現在の歩数を格納する変数の番号
  STEPS = 102
  # 現在の所持金を格納する変数の番号
  GOLD = 103
  # 使用スキルIDを格納する変数の番号
  USED_SKILL_ID = 104
  # スキルの成否判定を格納する変数の番号
  ACTION_HIT = 105
  # スキル対象者の友好度を格納する変数の番号
  ACTION_TARGET_FRIEND = 106  
  # 立ち上がったエネミーのIDを格納する変数の番号
  GET_UP = 107
  # スキル使用者のベースレベルを格納する変数の番号
  ACTION_USER_LEVEL = 108
  # スキル対象者の逃走レベルを格納する変数の番号
  ACTION_TARGET_LEVEL = 109  
  # 現在の所持コインを格納する変数の番号
  COIN = 110  
  # 周回数を格納する変数の番号
  TRACK = 901
  # 現在の難易度を格納する変数の番号
  CURRENT_DIFFICULTY = 902
  # クリア時の最高難易度を格納する変数の番号
  CLEAR_DIFFICULTY = 903
  # バトルファッカー撃破数を格納する変数の番号
  BATTLEFUCKER_DEFEAT = 907
  # エネミー用友好度を格納する変数の番号ベース値
  # 実際にアクセスするのはベース値+エネミーID
  ENEMY_REL_BASE = 2000
  # アクター用好感度を格納する変数の番号ベース値
  # 実際にアクセスするのはベース値+アクターID
  ACTOR_REL_BASE = 3000
  # 共有変数IDの設定  友好度共有に使う  []内に共有したいIDを指定
  COMMON_VARIABLE = [
    [2002, 2003],
    [2078, 2079, 2080, 2081],
    [2087, 2088, 2089, 2090, 2091, 2092],
  ]
  # 拡張選択肢の結果を保存する変数の番号
  EX_CHOICE_RESULT = 9
  # 混沌の迷宮の到達階層を保存する変数の番号 値が1以上なら「今回の冒険」に表示
  EX_DUNGEON_REACH = 122
  
end

#==============================================================================
# ■ NWConst::Actor
#==============================================================================
module NWConst::Actor
  # ルカのアクターID
  LUCA = 1
  # 個人レベル最大値
  MAX_BASE_LEVEL = 30
  # <習得不可>スキルを習得できないアクターのID
  NOT_LEARN_ACTORS = [1,2,3,4,527,531,532,534,536,537,538,539,540,541,542,543,563,564,565,566,567,701]
end

#==============================================================================
# ■ NWConst::Class
#==============================================================================
module NWConst::Class
  # 職業・種族範囲
  JOB_RANGE   = (1..149)
  TRIBE_RANGE = (151..374)
  # アクターの基礎ステータス用職業ベース値
  # 実際にアクセスするのはベース値+アクターID
  BASE_PARAM_BASE = 400
  # 種族「人間」のID
  HUMANS = [151]
end

#==============================================================================
# ■ NWConst::Item
#==============================================================================
module NWConst::Item
  # ポケット魔王城アイテムID
  POCKET_CASTLE = 501
  # プレゼントアイテムID範囲
  PRESENT_RANGE = (301..450)  
end
 
#==============================================================================
# ■ NWConst::Skill
#==============================================================================
module NWConst::Skill
  BIND_RESIST = 52        # 「もがく」のスキルID
  MERCY = 51              # 「なすがまま」のスキルID
  DEFAULT_TEMPTATION = 31 # 個別スキル未設定時に適用される誘惑時スキル
  NO_VALID_ACTION  = 4241 # 敵が選択可能な行動がない場合の代用スキル
end 
 
#==============================================================================
# ■ NWConst::Common
#==============================================================================
module NWConst::Common
  MAP_DRAW     = 2 # 地図表示用コモンイベント
  CALL_CASTLE  = 3 # ポケット魔王城の呼び出しコモンイベント
  BATTLE_START = 4 # 戦闘開始時に予約するコモンイベント
  BATTLE_END   = 5 # 戦闘終了時に予約するコモンイベント
  GIVEUP_START = 9 # 降参時に予約するコモンイベント
  LOSE_EVENT_BASE = 3000 # 敗北時に起動するコモンイベントベース値
end
 
#==============================================================================
# ■ NWConst::State
#==============================================================================
module NWConst::State
  UBIND   = 3  # 拘束使用者ステートID
  TBIND   = 4  # 拘束対象ステートID
  EUBIND  = 5  # 永久拘束使用者ステートID
  ETBIND  = 6  # 永久拘束対象ステートID
  TEMPTATION = 26 # 誘惑ステートID
  INCONTINENCE = 27 # 失禁ステートID
end

#==============================================================================
# ■ NWConst::WType
#==============================================================================
module NWConst::WType
  # エネミーの基本武器タイプ
  DEFAULT_ENEMY = 0  
end

#==============================================================================
# ■ NWConst::SType
#==============================================================================
module NWConst::SType
  BIND     = 65 # 拘束中スキルタイプID
  EBIND    = 66 # 永久拘束中スキルタイプID
end

#==============================================================================
# ■ NWConst::Elem
#==============================================================================
module NWConst::Elem
  # 快楽属性のID
  # 台詞・カウントの特殊化に必要
  PLEASURE = 2
end

